{
  "commit": {
    "id": "ce56b02210545323e947dfdcae1120cdb140bfc6",
    "short_id": "ce56b022",
    "created_at": "2024-11-23T23:39:21.000+01:00",
    "parent_ids": [
      "ad8f148830cea77d94dd213b53bdb2724584e557"
    ],
    "title": "iavf: refactor add/del FDIR filters",
    "message": "iavf: refactor add/del FDIR filters\n\nJIRA: https://issues.redhat.com/browse/RHEL-49814\n\ncommit 995617dccc89643d8d8022bbec76e869643842bf\nAuthor: Ahmed Zaki <ahmed.zaki@intel.com>\nDate:   Thu Jul 25 16:08:08 2024 -0600\n\n    iavf: refactor add/del FDIR filters\n\n    In preparation for a second type of FDIR filters that can be added by\n    tc-u32, move the add/del of the FDIR logic to be entirely contained in\n    iavf_fdir.c.\n\n    The iavf_find_fdir_fltr_by_loc() is renamed to iavf_find_fdir_fltr()\n    to be more agnostic to the filter ID parameter (for now @loc, which is\n    relevant only to current FDIR filters added via ethtool).\n\n    The FDIR filter deletion is moved from iavf_del_fdir_ethtool() in\n    ethtool.c to iavf_fdir_del_fltr(). While at it, fix a minor bug where\n    the \"fltr\" is accessed out of the fdir_fltr_lock spinlock protection.\n\n    Reviewed-by: Sridhar Samudrala <sridhar.samudrala@intel.com>\n    Reviewed-by: Marcin Szycik <marcin.szycik@linux.intel.com>\n    Signed-off-by: Ahmed Zaki <ahmed.zaki@intel.com>\n    Tested-by: Rafal Romanowski <rafal.romanowski@intel.com>\n    Reviewed-by: Simon Horman <horms@kernel.org>\n    Signed-off-by: Tony Nguyen <anthony.l.nguyen@intel.com>\n\nSigned-off-by: Michal Schmidt <mschmidt@redhat.com>\n",
    "author_name": "Michal Schmidt",
    "author_email": "mschmidt@redhat.com",
    "authored_date": "2024-11-23T23:11:07.000+01:00",
    "committer_name": "Michal Schmidt",
    "committer_email": "mschmidt@redhat.com",
    "committed_date": "2024-11-23T23:39:21.000+01:00",
    "trailers": {},
    "extended_trailers": {},
    "web_url": "https://gitlab.com/redhat/centos-stream/src/kernel/centos-stream-9/-/commit/ce56b02210545323e947dfdcae1120cdb140bfc6"
  },
  "commits": [
    {
      "id": "1eae5ee958fc317b81d1de5037a04c0c5ed3d94c",
      "short_id": "1eae5ee9",
      "created_at": "2024-11-23T19:54:58.000+01:00",
      "parent_ids": [
        "3ce0b2c330a41dd577c11e50bd822ba91cdc3421"
      ],
      "title": "iavf: implement modern PM ops declarations",
      "message": "iavf: implement modern PM ops declarations\n\nJIRA: https://issues.redhat.com/browse/RHEL-49814\n\nConflicts: Only the iavf part.\n\ncommit 75a3f93b53832449c2c58a527a3865394cc656ba\nAuthor: Jesse Brandeburg <jesse.brandeburg@intel.com>\nDate:   Tue Mar 5 18:50:22 2024 -0800\n\n    net: intel: implement modern PM ops declarations\n\n    Switch the Intel networking drivers to use the new power management ops\n    declaration formats and macros, which allows us to drop __maybe_unused,\n    as well as a bunch of ifdef checking CONFIG_PM.\n\n    This is safe to do because the compiler drops the unused functions,\n    verified by checking for any of the power management function symbols\n    being present in System.map for a build without CONFIG_PM.\n\n    If a driver has runtime PM, define the ops with pm_ptr(), and if the\n    driver has Simple PM, use pm_sleep_ptr(), as well as the new versions of\n    the macros for declaring the members of the pm_ops structs.\n\n    Checked with network-enabled allnoconfig, allyesconfig, allmodconfig on\n    x64_64.\n\n    Reviewed-by: Alan Brady <alan.brady@intel.com>\n    Signed-off-by: Jesse Brandeburg <jesse.brandeburg@intel.com>\n    Reviewed-by: Maciej Fijalkowski <maciej.fijalkowski@intel.com>\n    Tested-by: Pucha Himasekhar Reddy <himasekharx.reddy.pucha@intel.com> (A Contingent worker at Intel)\n    Signed-off-by: Tony Nguyen <anthony.l.nguyen@intel.com>\n\nSigned-off-by: Michal Schmidt <mschmidt@redhat.com>\n",
      "author_name": "Michal Schmidt",
      "author_email": "mschmidt@redhat.com",
      "authored_date": "2024-11-23T19:51:55.000+01:00",
      "committer_name": "Michal Schmidt",
      "committer_email": "mschmidt@redhat.com",
      "committed_date": "2024-11-23T19:54:58.000+01:00",
      "trailers": {},
      "extended_trailers": {},
      "web_url": "https://gitlab.com/redhat/centos-stream/src/kernel/centos-stream-9/-/commit/1eae5ee958fc317b81d1de5037a04c0c5ed3d94c"
    },
    {
      "id": "ee3f325cabd31904251a7f92ef350689e6b8a7d3",
      "short_id": "ee3f325c",
      "created_at": "2024-11-23T23:39:10.000+01:00",
      "parent_ids": [
        "1eae5ee958fc317b81d1de5037a04c0c5ed3d94c"
      ],
      "title": "iavf: kill \"legacy-rx\" for good",
      "message": "iavf: kill \"legacy-rx\" for good\n\nJIRA: https://issues.redhat.com/browse/RHEL-49814\n\ncommit 53844673d555290010dd3d6de1365af72e9839c8\nAuthor: Alexander Lobakin <aleksander.lobakin@intel.com>\nDate:   Thu Apr 18 13:36:08 2024 +0200\n\n    iavf: kill \"legacy-rx\" for good\n\n    Ever since build_skb() became stable, the old way with allocating an skb\n    for storing the headers separately, which will be then copied manually,\n    was slower, less flexible, and thus obsolete.\n\n    * It had higher pressure on MM since it actually allocates new pages,\n      which then get split and refcount-biased (NAPI page cache);\n    * It implies memcpy() of packet headers (40+ bytes per each frame);\n    * the actual header length was calculated via eth_get_headlen(), which\n      invokes Flow Dissector and thus wastes a bunch of CPU cycles;\n    * XDP makes it even more weird since it requires headroom for long and\n      also tailroom for some time (since mbuf landed). Take a look at the\n      ice driver, which is built around work-arounds to make XDP work with\n      it.\n\n    Even on some quite low-end hardware (not a common case for 100G NICs) it\n    was performing worse.\n    The only advantage \"legacy-rx\" had is that it didn't require any\n    reserved headroom and tailroom. But iavf didn't use this, as it always\n    splits pages into two halves of 2k, while that save would only be useful\n    when striding. And again, XDP effectively removes that sole pro.\n\n    There's a train of features to land in IAVF soon: Page Pool, XDP, XSk,\n    multi-buffer etc. Each new would require adding more and more Danse\n    Macabre for absolutely no reason, besides making hotpath less and less\n    effective.\n    Remove the \"feature\" with all the related code. This includes at least\n    one very hot branch (typically hit on each new frame), which was either\n    always-true or always-false at least for a complete NAPI bulk of 64\n    frames, the whole private flags cruft, and so on. Some stats:\n\n    Function: add/remove: 0/4 grow/shrink: 0/7 up/down: 0/-721 (-721)\n    RO Data: add/remove: 0/1 grow/shrink: 0/0 up/down: 0/-40 (-40)\n\n    Reviewed-by: Alexander Duyck <alexanderduyck@fb.com>\n    Reviewed-by: Przemek Kitszel <przemyslaw.kitszel@intel.com>\n    Signed-off-by: Alexander Lobakin <aleksander.lobakin@intel.com>\n    Signed-off-by: Tony Nguyen <anthony.l.nguyen@intel.com>\n\nSigned-off-by: Michal Schmidt <mschmidt@redhat.com>\n",
      "author_name": "Michal Schmidt",
      "author_email": "mschmidt@redhat.com",
      "authored_date": "2024-11-23T23:39:10.000+01:00",
      "committer_name": "Michal Schmidt",
      "committer_email": "mschmidt@redhat.com",
      "committed_date": "2024-11-23T23:39:10.000+01:00",
      "trailers": {},
      "extended_trailers": {},
      "web_url": "https://gitlab.com/redhat/centos-stream/src/kernel/centos-stream-9/-/commit/ee3f325cabd31904251a7f92ef350689e6b8a7d3"
    },
    {
      "id": "41c3d3f292ec0544bb669c4f42a1823b2ee11570",
      "short_id": "41c3d3f2",
      "created_at": "2024-11-23T23:39:20.000+01:00",
      "parent_ids": [
        "ee3f325cabd31904251a7f92ef350689e6b8a7d3"
      ],
      "title": "iavf: RHEL only: re-add \"legacy-rx\" as a dummy priv flag",
      "message": "iavf: RHEL only: re-add \"legacy-rx\" as a dummy priv flag\n\nJIRA: https://issues.redhat.com/browse/RHEL-49814\nUpstream status: RHEL-only\n\niavf removed the \"legacy-rx\" ethtool priv flag. Add it back for the rest\nof RHEL 9 lifetime. Just in case someone's scripts would break when the\nflag is no longer there. Setting the flag will succeed, but it will have\nno effect other than printing a deprecation warning (once).\n\nSigned-off-by: Michal Schmidt <mschmidt@redhat.com>\n",
      "author_name": "Michal Schmidt",
      "author_email": "mschmidt@redhat.com",
      "authored_date": "2024-11-23T23:29:58.000+01:00",
      "committer_name": "Michal Schmidt",
      "committer_email": "mschmidt@redhat.com",
      "committed_date": "2024-11-23T23:39:20.000+01:00",
      "trailers": {},
      "extended_trailers": {},
      "web_url": "https://gitlab.com/redhat/centos-stream/src/kernel/centos-stream-9/-/commit/41c3d3f292ec0544bb669c4f42a1823b2ee11570"
    },
    {
      "id": "aa13aadbd4655b2ec5b50d6376013129d6df32ff",
      "short_id": "aa13aadb",
      "created_at": "2024-11-23T23:39:20.000+01:00",
      "parent_ids": [
        "41c3d3f292ec0544bb669c4f42a1823b2ee11570"
      ],
      "title": "iavf: drop page splitting and recycling",
      "message": "iavf: drop page splitting and recycling\n\nJIRA: https://issues.redhat.com/browse/RHEL-49814\n\ncommit 920d86f3c5529d658bb9576ae9120a2330d9b220\nAuthor: Alexander Lobakin <aleksander.lobakin@intel.com>\nDate:   Thu Apr 18 13:36:09 2024 +0200\n\n    iavf: drop page splitting and recycling\n\n    As an intermediate step, remove all page splitting/recycling code. Just\n    always allocate a new page and don't touch its refcount, so that it gets\n    freed by the core stack later.\n    Same for the \"in-place\" recycling, i.e. when an unused buffer gets\n    assigned to a first needs-refilling descriptor. In some cases, this\n    was leading to moving up to 63 &iavf_rx_buf structures around the ring\n    on a per-field basis -- not something wanted on hotpath.\n    The change allows to greatly simplify certain parts of the code:\n\n    Function: add/remove: 0/2 grow/shrink: 0/7 up/down: 0/-744 (-744)\n\n    Although the array of &iavf_rx_buf is barely used now and could be\n    replaced with just page pointer array, don't touch it now to not\n    complicate replacing it with libie Rx buffer struct later on.\n    No surprise perf loses up to 30% here, but that regression will\n    go away once PP lands.\n    Note that iavf_rx_pg_*() definitions are left to reduce diffstat.\n    They will be removed with the conversion to Page Pool.\n\n    Signed-off-by: Alexander Lobakin <aleksander.lobakin@intel.com>\n    Signed-off-by: Tony Nguyen <anthony.l.nguyen@intel.com>\n\nSigned-off-by: Michal Schmidt <mschmidt@redhat.com>\n",
      "author_name": "Michal Schmidt",
      "author_email": "mschmidt@redhat.com",
      "authored_date": "2024-11-23T23:11:05.000+01:00",
      "committer_name": "Michal Schmidt",
      "committer_email": "mschmidt@redhat.com",
      "committed_date": "2024-11-23T23:39:20.000+01:00",
      "trailers": {},
      "extended_trailers": {},
      "web_url": "https://gitlab.com/redhat/centos-stream/src/kernel/centos-stream-9/-/commit/aa13aadbd4655b2ec5b50d6376013129d6df32ff"
    },
    {
      "id": "8eea2a46b61f3ee319c293c03223197cdb6d78e5",
      "short_id": "8eea2a46",
      "created_at": "2024-11-23T23:39:20.000+01:00",
      "parent_ids": [
        "aa13aadbd4655b2ec5b50d6376013129d6df32ff"
      ],
      "title": "iavf: pack iavf_ring more efficiently",
      "message": "iavf: pack iavf_ring more efficiently\n\nJIRA: https://issues.redhat.com/browse/RHEL-49814\n\ncommit 97cadd3d3ce3df32647011233a35a1597bb7a55b\nAuthor: Alexander Lobakin <aleksander.lobakin@intel.com>\nDate:   Thu Apr 18 13:36:14 2024 +0200\n\n    iavf: pack iavf_ring more efficiently\n\n    Before replacing the Rx buffer management with libie, clean up\n    &iavf_ring a bit.\n    There are several fields not used anywhere in the code -- simply remove\n    them. Move ::tail up to remove a hole. Replace ::arm_wb boolean with\n    1-bit flag in ::flags to free 1 more byte. Finally, move ::prev_pkt_ctr\n    out of &iavf_tx_queue_stats -- it doesn't belong there (used for Tx\n    stall detection). Place it next to the stats on the ring itself to fill\n    the 4-byte slot.\n    The result: no holes and all the hot fields fit into the first 64-byte\n    cacheline.\n\n    Signed-off-by: Alexander Lobakin <aleksander.lobakin@intel.com>\n    Signed-off-by: Tony Nguyen <anthony.l.nguyen@intel.com>\n\nSigned-off-by: Michal Schmidt <mschmidt@redhat.com>\n",
      "author_name": "Michal Schmidt",
      "author_email": "mschmidt@redhat.com",
      "authored_date": "2024-11-23T23:11:05.000+01:00",
      "committer_name": "Michal Schmidt",
      "committer_email": "mschmidt@redhat.com",
      "committed_date": "2024-11-23T23:39:20.000+01:00",
      "trailers": {},
      "extended_trailers": {},
      "web_url": "https://gitlab.com/redhat/centos-stream/src/kernel/centos-stream-9/-/commit/8eea2a46b61f3ee319c293c03223197cdb6d78e5"
    },
    {
      "id": "08c4916b1670acfaa37b1c63f58af0f9fbc51577",
      "short_id": "08c4916b",
      "created_at": "2024-11-23T23:39:21.000+01:00",
      "parent_ids": [
        "8eea2a46b61f3ee319c293c03223197cdb6d78e5"
      ],
      "title": "iavf: switch to Page Pool",
      "message": "iavf: switch to Page Pool\n\nJIRA: https://issues.redhat.com/browse/RHEL-49814\n\ncommit 5fa4caff59f251bf9f766fc48c9f0a774a9216a0\nAuthor: Alexander Lobakin <aleksander.lobakin@intel.com>\nDate:   Thu Apr 18 13:36:15 2024 +0200\n\n    iavf: switch to Page Pool\n\n    Now that the IAVF driver simply uses dev_alloc_page() + free_page() with\n    no custom recycling logics, it can easily be switched to using Page\n    Pool / libeth API instead.\n    This allows to removing the whole dancing around headroom, HW buffer\n    size, and page order. All DMA-for-device is now done in the PP core,\n    for-CPU -- in the libeth helper.\n    Use skb_mark_for_recycle() to bring back the recycling and restore the\n    performance. Speaking of performance: on par with the baseline and\n    faster with the PP optimization series applied. But the memory usage for\n    1500b MTU is now almost 2x lower (x86_64) thanks to allocating a page\n    every second descriptor.\n\n    Signed-off-by: Alexander Lobakin <aleksander.lobakin@intel.com>\n    Signed-off-by: Tony Nguyen <anthony.l.nguyen@intel.com>\n\nSigned-off-by: Michal Schmidt <mschmidt@redhat.com>\n",
      "author_name": "Michal Schmidt",
      "author_email": "mschmidt@redhat.com",
      "authored_date": "2024-11-23T23:11:06.000+01:00",
      "committer_name": "Michal Schmidt",
      "committer_email": "mschmidt@redhat.com",
      "committed_date": "2024-11-23T23:39:21.000+01:00",
      "trailers": {},
      "extended_trailers": {},
      "web_url": "https://gitlab.com/redhat/centos-stream/src/kernel/centos-stream-9/-/commit/08c4916b1670acfaa37b1c63f58af0f9fbc51577"
    },
    {
      "id": "ad8f148830cea77d94dd213b53bdb2724584e557",
      "short_id": "ad8f1488",
      "created_at": "2024-11-23T23:39:21.000+01:00",
      "parent_ids": [
        "08c4916b1670acfaa37b1c63f58af0f9fbc51577"
      ],
      "title": "iavf: flower: validate control flags",
      "message": "iavf: flower: validate control flags\n\nJIRA: https://issues.redhat.com/browse/RHEL-49814\n\ncommit c7b9c49442469b536829e4d1238ce8cf352bd149\nAuthor: Asbjørn Sloth Tønnesen <ast@fiberby.net>\nDate:   Tue Apr 16 14:43:25 2024 +0000\n\n    iavf: flower: validate control flags\n\n    This driver currently doesn't support any control flags.\n\n    Use flow_rule_has_control_flags() to check for control flags,\n    such as can be set through `tc flower ... ip_flags frag`.\n\n    In case any control flags are masked, flow_rule_has_control_flags()\n    sets a NL extended error message, and we return -EOPNOTSUPP.\n\n    Only compile-tested.\n\n    Signed-off-by: Asbjørn Sloth Tønnesen <ast@fiberby.net>\n    Reviewed-by: Simon Horman <horms@kernel.org>\n    Tested-by: Sujai Buvaneswaran <sujai.buvaneswaran@intel.com>\n    Signed-off-by: Tony Nguyen <anthony.l.nguyen@intel.com>\n\nSigned-off-by: Michal Schmidt <mschmidt@redhat.com>\n",
      "author_name": "Michal Schmidt",
      "author_email": "mschmidt@redhat.com",
      "authored_date": "2024-11-23T23:11:06.000+01:00",
      "committer_name": "Michal Schmidt",
      "committer_email": "mschmidt@redhat.com",
      "committed_date": "2024-11-23T23:39:21.000+01:00",
      "trailers": {},
      "extended_trailers": {},
      "web_url": "https://gitlab.com/redhat/centos-stream/src/kernel/centos-stream-9/-/commit/ad8f148830cea77d94dd213b53bdb2724584e557"
    },
    {
      "id": "ce56b02210545323e947dfdcae1120cdb140bfc6",
      "short_id": "ce56b022",
      "created_at": "2024-11-23T23:39:21.000+01:00",
      "parent_ids": [
        "ad8f148830cea77d94dd213b53bdb2724584e557"
      ],
      "title": "iavf: refactor add/del FDIR filters",
      "message": "iavf: refactor add/del FDIR filters\n\nJIRA: https://issues.redhat.com/browse/RHEL-49814\n\ncommit 995617dccc89643d8d8022bbec76e869643842bf\nAuthor: Ahmed Zaki <ahmed.zaki@intel.com>\nDate:   Thu Jul 25 16:08:08 2024 -0600\n\n    iavf: refactor add/del FDIR filters\n\n    In preparation for a second type of FDIR filters that can be added by\n    tc-u32, move the add/del of the FDIR logic to be entirely contained in\n    iavf_fdir.c.\n\n    The iavf_find_fdir_fltr_by_loc() is renamed to iavf_find_fdir_fltr()\n    to be more agnostic to the filter ID parameter (for now @loc, which is\n    relevant only to current FDIR filters added via ethtool).\n\n    The FDIR filter deletion is moved from iavf_del_fdir_ethtool() in\n    ethtool.c to iavf_fdir_del_fltr(). While at it, fix a minor bug where\n    the \"fltr\" is accessed out of the fdir_fltr_lock spinlock protection.\n\n    Reviewed-by: Sridhar Samudrala <sridhar.samudrala@intel.com>\n    Reviewed-by: Marcin Szycik <marcin.szycik@linux.intel.com>\n    Signed-off-by: Ahmed Zaki <ahmed.zaki@intel.com>\n    Tested-by: Rafal Romanowski <rafal.romanowski@intel.com>\n    Reviewed-by: Simon Horman <horms@kernel.org>\n    Signed-off-by: Tony Nguyen <anthony.l.nguyen@intel.com>\n\nSigned-off-by: Michal Schmidt <mschmidt@redhat.com>\n",
      "author_name": "Michal Schmidt",
      "author_email": "mschmidt@redhat.com",
      "authored_date": "2024-11-23T23:11:07.000+01:00",
      "committer_name": "Michal Schmidt",
      "committer_email": "mschmidt@redhat.com",
      "committed_date": "2024-11-23T23:39:21.000+01:00",
      "trailers": {},
      "extended_trailers": {},
      "web_url": "https://gitlab.com/redhat/centos-stream/src/kernel/centos-stream-9/-/commit/ce56b02210545323e947dfdcae1120cdb140bfc6"
    }
  ],
  "diffs": [
    {
      "diff": "@@ -287,7 +287,7 @@ struct iavf_adapter {\n #define IAVF_FLAG_RESET_PENDING\t\tBIT(4)\n #define IAVF_FLAG_RESET_NEEDED\t\tBIT(5)\n #define IAVF_FLAG_WB_ON_ITR_CAPABLE\t\tBIT(6)\n-#define IAVF_FLAG_LEGACY_RX\t\t\tBIT(15)\n+/* BIT(15) is free, was IAVF_FLAG_LEGACY_RX */\n #define IAVF_FLAG_REINIT_ITR_NEEDED\t\tBIT(16)\n #define IAVF_FLAG_QUEUES_DISABLED\t\tBIT(17)\n #define IAVF_FLAG_SETUP_NETDEV_FEATURES\t\tBIT(18)\n@@ -444,6 +444,11 @@ struct iavf_adapter {\n \tspinlock_t adv_rss_lock;\t/* protect the RSS management list */\n };\n \n+/* Must be called with fdir_fltr_lock lock held */\n+static inline bool iavf_fdir_max_reached(struct iavf_adapter *adapter)\n+{\n+\treturn adapter->fdir_active_fltr >= IAVF_MAX_FDIR_FILTERS;\n+}\n \n /* Ethtool Private Flags */\n \n",
      "new_path": "drivers/net/ethernet/intel/iavf/iavf.h",
      "old_path": "drivers/net/ethernet/intel/iavf/iavf.h",
      "a_mode": "100644",
      "b_mode": "100644",
      "new_file": false,
      "renamed_file": false,
      "deleted_file": false,
      "generated_file": null
    },
    {
      "diff": "@@ -240,29 +240,6 @@ static const struct iavf_stats iavf_gstrings_stats[] = {\n \n #define IAVF_QUEUE_STATS_LEN\tARRAY_SIZE(iavf_gstrings_queue_stats)\n \n-/* For now we have one and only one private flag and it is only defined\n- * when we have support for the SKIP_CPU_SYNC DMA attribute.  Instead\n- * of leaving all this code sitting around empty we will strip it unless\n- * our one private flag is actually available.\n- */\n-struct iavf_priv_flags {\n-\tchar flag_string[ETH_GSTRING_LEN];\n-\tu32 flag;\n-\tbool read_only;\n-};\n-\n-#define IAVF_PRIV_FLAG(_name, _flag, _read_only) { \\\n-\t.flag_string = _name, \\\n-\t.flag = _flag, \\\n-\t.read_only = _read_only, \\\n-}\n-\n-static const struct iavf_priv_flags iavf_gstrings_priv_flags[] = {\n-\tIAVF_PRIV_FLAG(\"legacy-rx\", IAVF_FLAG_LEGACY_RX, 0),\n-};\n-\n-#define IAVF_PRIV_FLAGS_STR_LEN ARRAY_SIZE(iavf_gstrings_priv_flags)\n-\n /**\n  * iavf_get_link_ksettings - Get Link Speed and Duplex settings\n  * @netdev: network interface device structure\n@@ -343,7 +320,7 @@ static int iavf_get_sset_count(struct net_device *netdev, int sset)\n \t\t\t(IAVF_QUEUE_STATS_LEN * 2 *\n \t\t\t netdev->real_num_tx_queues);\n \telse if (sset == ETH_SS_PRIV_FLAGS)\n-\t\treturn IAVF_PRIV_FLAGS_STR_LEN;\n+\t\treturn 1; /* RHEL 9: Deprecated \"legacy-rx\" flag */\n \telse\n \t\treturn -EINVAL;\n }\n@@ -391,13 +368,11 @@ static void iavf_get_ethtool_stats(struct net_device *netdev,\n  * @data: buffer for string data\n  *\n  * Builds the private flags string table\n+ * RHEL 9: Only for the deprecated \"legacy-rx\" priv flag\n  **/\n static void iavf_get_priv_flag_strings(struct net_device *netdev, u8 *data)\n {\n-\tunsigned int i;\n-\n-\tfor (i = 0; i < IAVF_PRIV_FLAGS_STR_LEN; i++)\n-\t\tethtool_puts(&data, iavf_gstrings_priv_flags[i].flag_string);\n+\tethtool_puts(&data, \"legacy-rx\");\n }\n \n /**\n@@ -450,27 +425,12 @@ static void iavf_get_strings(struct net_device *netdev, u32 sset, u8 *data)\n  * iavf_get_priv_flags - report device private flags\n  * @netdev: network interface device structure\n  *\n- * The get string set count and the string set should be matched for each\n- * flag returned.  Add new strings for each flag to the iavf_gstrings_priv_flags\n- * array.\n- *\n  * Returns a u32 bitmap of flags.\n  **/\n static u32 iavf_get_priv_flags(struct net_device *netdev)\n {\n-\tstruct iavf_adapter *adapter = netdev_priv(netdev);\n-\tu32 i, ret_flags = 0;\n-\n-\tfor (i = 0; i < IAVF_PRIV_FLAGS_STR_LEN; i++) {\n-\t\tconst struct iavf_priv_flags *priv_flags;\n-\n-\t\tpriv_flags = &iavf_gstrings_priv_flags[i];\n-\n-\t\tif (priv_flags->flag & adapter->flags)\n-\t\t\tret_flags |= BIT(i);\n-\t}\n-\n-\treturn ret_flags;\n+\t/* RHEL 9: Deprecated \"legacy-rx\" flag. Always off. */\n+\treturn 0;\n }\n \n /**\n@@ -480,64 +440,10 @@ static u32 iavf_get_priv_flags(struct net_device *netdev)\n  **/\n static int iavf_set_priv_flags(struct net_device *netdev, u32 flags)\n {\n-\tstruct iavf_adapter *adapter = netdev_priv(netdev);\n-\tu32 orig_flags, new_flags, changed_flags;\n-\tint ret = 0;\n-\tu32 i;\n-\n-\torig_flags = READ_ONCE(adapter->flags);\n-\tnew_flags = orig_flags;\n-\n-\tfor (i = 0; i < IAVF_PRIV_FLAGS_STR_LEN; i++) {\n-\t\tconst struct iavf_priv_flags *priv_flags;\n-\n-\t\tpriv_flags = &iavf_gstrings_priv_flags[i];\n-\n-\t\tif (flags & BIT(i))\n-\t\t\tnew_flags |= priv_flags->flag;\n-\t\telse\n-\t\t\tnew_flags &= ~(priv_flags->flag);\n-\n-\t\tif (priv_flags->read_only &&\n-\t\t    ((orig_flags ^ new_flags) & ~BIT(i)))\n-\t\t\treturn -EOPNOTSUPP;\n-\t}\n-\n-\t/* Before we finalize any flag changes, any checks which we need to\n-\t * perform to determine if the new flags will be supported should go\n-\t * here...\n-\t */\n-\n-\t/* Compare and exchange the new flags into place. If we failed, that\n-\t * is if cmpxchg returns anything but the old value, this means\n-\t * something else must have modified the flags variable since we\n-\t * copied it. We'll just punt with an error and log something in the\n-\t * message buffer.\n-\t */\n-\tif (cmpxchg(&adapter->flags, orig_flags, new_flags) != orig_flags) {\n-\t\tdev_warn(&adapter->pdev->dev,\n-\t\t\t \"Unable to update adapter->flags as it was modified by another thread...\\n\");\n-\t\treturn -EAGAIN;\n-\t}\n-\n-\tchanged_flags = orig_flags ^ new_flags;\n-\n-\t/* Process any additional changes needed as a result of flag changes.\n-\t * The changed_flags value reflects the list of bits that were changed\n-\t * in the code above.\n-\t */\n-\n-\t/* issue a reset to force legacy-rx change to take effect */\n-\tif (changed_flags & IAVF_FLAG_LEGACY_RX) {\n-\t\tif (netif_running(netdev)) {\n-\t\t\tiavf_schedule_reset(adapter, IAVF_FLAG_RESET_NEEDED);\n-\t\t\tret = iavf_wait_for_reset(adapter);\n-\t\t\tif (ret)\n-\t\t\t\tnetdev_warn(netdev, \"Changing private flags timeout or interrupted waiting for reset\");\n-\t\t}\n-\t}\n-\n-\treturn ret;\n+\t/* RHEL 9: Deprecated \"legacy-rx\" flag */\n+\tif (flags & 1)\n+\t\tnetdev_warn_once(netdev, \"iavf private flag 'legacy-rx' is deprecated. Setting it has no effect.\\n\");\n+\treturn 0;\n }\n \n /**\n@@ -585,7 +491,7 @@ static void iavf_get_drvinfo(struct net_device *netdev,\n \tstrscpy(drvinfo->driver, iavf_driver_name, 32);\n \tstrscpy(drvinfo->fw_version, \"N/A\", 4);\n \tstrscpy(drvinfo->bus_info, pci_name(adapter->pdev), 32);\n-\tdrvinfo->n_priv_flags = IAVF_PRIV_FLAGS_STR_LEN;\n+\tdrvinfo->n_priv_flags = 1;  /* RHEL 9: Deprecated \"legacy-rx\" flag */\n }\n \n /**\n@@ -1065,7 +971,7 @@ iavf_get_ethtool_fdir_entry(struct iavf_adapter *adapter,\n \n \tspin_lock_bh(&adapter->fdir_fltr_lock);\n \n-\trule = iavf_find_fdir_fltr_by_loc(adapter, fsp->location);\n+\trule = iavf_find_fdir_fltr(adapter, fsp->location);\n \tif (!rule) {\n \t\tret = -EINVAL;\n \t\tgoto release_lock;\n@@ -1401,15 +1307,7 @@ static int iavf_add_fdir_ethtool(struct iavf_adapter *adapter, struct ethtool_rx\n \t\treturn -EINVAL;\n \n \tspin_lock_bh(&adapter->fdir_fltr_lock);\n-\tif (adapter->fdir_active_fltr >= IAVF_MAX_FDIR_FILTERS) {\n-\t\tspin_unlock_bh(&adapter->fdir_fltr_lock);\n-\t\tdev_err(&adapter->pdev->dev,\n-\t\t\t\"Unable to add Flow Director filter because VF reached the limit of max allowed filters (%u)\\n\",\n-\t\t\tIAVF_MAX_FDIR_FILTERS);\n-\t\treturn -ENOSPC;\n-\t}\n-\n-\tif (iavf_find_fdir_fltr_by_loc(adapter, fsp->location)) {\n+\tif (iavf_find_fdir_fltr(adapter, fsp->location)) {\n \t\tdev_err(&adapter->pdev->dev, \"Failed to add Flow Director filter, it already exists\\n\");\n \t\tspin_unlock_bh(&adapter->fdir_fltr_lock);\n \t\treturn -EEXIST;\n@@ -1429,23 +1327,10 @@ static int iavf_add_fdir_ethtool(struct iavf_adapter *adapter, struct ethtool_rx\n \t}\n \n \terr = iavf_add_fdir_fltr_info(adapter, fsp, fltr);\n-\tif (err)\n-\t\tgoto ret;\n-\n-\tspin_lock_bh(&adapter->fdir_fltr_lock);\n-\tiavf_fdir_list_add_fltr(adapter, fltr);\n-\tadapter->fdir_active_fltr++;\n-\n-\tif (adapter->link_up)\n-\t\tfltr->state = IAVF_FDIR_FLTR_ADD_REQUEST;\n-\telse\n-\t\tfltr->state = IAVF_FDIR_FLTR_INACTIVE;\n-\tspin_unlock_bh(&adapter->fdir_fltr_lock);\n+\tif (!err)\n+\t\terr = iavf_fdir_add_fltr(adapter, fltr);\n \n-\tif (adapter->link_up)\n-\t\tiavf_schedule_aq_request(adapter, IAVF_FLAG_AQ_ADD_FDIR_FILTER);\n-ret:\n-\tif (err && fltr)\n+\tif (err)\n \t\tkfree(fltr);\n \n \tmutex_unlock(&adapter->crit_lock);\n@@ -1462,34 +1347,11 @@ static int iavf_add_fdir_ethtool(struct iavf_adapter *adapter, struct ethtool_rx\n static int iavf_del_fdir_ethtool(struct iavf_adapter *adapter, struct ethtool_rxnfc *cmd)\n {\n \tstruct ethtool_rx_flow_spec *fsp = (struct ethtool_rx_flow_spec *)&cmd->fs;\n-\tstruct iavf_fdir_fltr *fltr = NULL;\n-\tint err = 0;\n \n \tif (!(adapter->flags & IAVF_FLAG_FDIR_ENABLED))\n \t\treturn -EOPNOTSUPP;\n \n-\tspin_lock_bh(&adapter->fdir_fltr_lock);\n-\tfltr = iavf_find_fdir_fltr_by_loc(adapter, fsp->location);\n-\tif (fltr) {\n-\t\tif (fltr->state == IAVF_FDIR_FLTR_ACTIVE) {\n-\t\t\tfltr->state = IAVF_FDIR_FLTR_DEL_REQUEST;\n-\t\t} else if (fltr->state == IAVF_FDIR_FLTR_INACTIVE) {\n-\t\t\tlist_del(&fltr->list);\n-\t\t\tkfree(fltr);\n-\t\t\tadapter->fdir_active_fltr--;\n-\t\t\tfltr = NULL;\n-\t\t} else {\n-\t\t\terr = -EBUSY;\n-\t\t}\n-\t} else if (adapter->fdir_active_fltr) {\n-\t\terr = -EINVAL;\n-\t}\n-\tspin_unlock_bh(&adapter->fdir_fltr_lock);\n-\n-\tif (fltr && fltr->state == IAVF_FDIR_FLTR_DEL_REQUEST)\n-\t\tiavf_schedule_aq_request(adapter, IAVF_FLAG_AQ_DEL_FDIR_FILTER);\n-\n-\treturn err;\n+\treturn iavf_fdir_del_fltr(adapter, fsp->location);\n }\n \n /**\n",
      "new_path": "drivers/net/ethernet/intel/iavf/iavf_ethtool.c",
      "old_path": "drivers/net/ethernet/intel/iavf/iavf_ethtool.c",
      "a_mode": "100644",
      "b_mode": "100644",
      "new_file": false,
      "renamed_file": false,
      "deleted_file": false,
      "generated_file": null
    },
    {
      "diff": "@@ -815,13 +815,14 @@ bool iavf_fdir_is_dup_fltr(struct iavf_adapter *adapter, struct iavf_fdir_fltr *\n }\n \n /**\n- * iavf_find_fdir_fltr_by_loc - find filter with location\n+ * iavf_find_fdir_fltr - find FDIR filter\n  * @adapter: pointer to the VF adapter structure\n  * @loc: location to find.\n  *\n- * Returns pointer to Flow Director filter if found or null\n+ * Returns: pointer to Flow Director filter if found or NULL. Lock must be held.\n  */\n-struct iavf_fdir_fltr *iavf_find_fdir_fltr_by_loc(struct iavf_adapter *adapter, u32 loc)\n+struct iavf_fdir_fltr *iavf_find_fdir_fltr(struct iavf_adapter *adapter,\n+\t\t\t\t\t   u32 loc)\n {\n \tstruct iavf_fdir_fltr *rule;\n \n@@ -833,14 +834,26 @@ struct iavf_fdir_fltr *iavf_find_fdir_fltr_by_loc(struct iavf_adapter *adapter,\n }\n \n /**\n- * iavf_fdir_list_add_fltr - add a new node to the flow director filter list\n+ * iavf_fdir_add_fltr - add a new node to the flow director filter list\n  * @adapter: pointer to the VF adapter structure\n  * @fltr: filter node to add to structure\n+ *\n+ * Return: 0 on success or negative errno on failure.\n  */\n-void iavf_fdir_list_add_fltr(struct iavf_adapter *adapter, struct iavf_fdir_fltr *fltr)\n+int iavf_fdir_add_fltr(struct iavf_adapter *adapter,\n+\t\t       struct iavf_fdir_fltr *fltr)\n {\n \tstruct iavf_fdir_fltr *rule, *parent = NULL;\n \n+\tspin_lock_bh(&adapter->fdir_fltr_lock);\n+\tif (iavf_fdir_max_reached(adapter)) {\n+\t\tspin_unlock_bh(&adapter->fdir_fltr_lock);\n+\t\tdev_err(&adapter->pdev->dev,\n+\t\t\t\"Unable to add Flow Director filter (limit (%u) reached)\\n\",\n+\t\t\tIAVF_MAX_FDIR_FILTERS);\n+\t\treturn -ENOSPC;\n+\t}\n+\n \tlist_for_each_entry(rule, &adapter->fdir_list_head, list) {\n \t\tif (rule->loc >= fltr->loc)\n \t\t\tbreak;\n@@ -851,4 +864,53 @@ void iavf_fdir_list_add_fltr(struct iavf_adapter *adapter, struct iavf_fdir_fltr\n \t\tlist_add(&fltr->list, &parent->list);\n \telse\n \t\tlist_add(&fltr->list, &adapter->fdir_list_head);\n+\tadapter->fdir_active_fltr++;\n+\n+\tif (adapter->link_up)\n+\t\tfltr->state = IAVF_FDIR_FLTR_ADD_REQUEST;\n+\telse\n+\t\tfltr->state = IAVF_FDIR_FLTR_INACTIVE;\n+\tspin_unlock_bh(&adapter->fdir_fltr_lock);\n+\n+\tif (adapter->link_up)\n+\t\tiavf_schedule_aq_request(adapter, IAVF_FLAG_AQ_ADD_FDIR_FILTER);\n+\n+\treturn 0;\n+}\n+\n+/**\n+ * iavf_fdir_del_fltr - delete a flow director filter from the list\n+ * @adapter: pointer to the VF adapter structure\n+ * @loc: location to delete.\n+ *\n+ * Return: 0 on success or negative errno on failure.\n+ */\n+int iavf_fdir_del_fltr(struct iavf_adapter *adapter, u32 loc)\n+{\n+\tstruct iavf_fdir_fltr *fltr = NULL;\n+\tint err = 0;\n+\n+\tspin_lock_bh(&adapter->fdir_fltr_lock);\n+\tfltr = iavf_find_fdir_fltr(adapter, loc);\n+\n+\tif (fltr) {\n+\t\tif (fltr->state == IAVF_FDIR_FLTR_ACTIVE) {\n+\t\t\tfltr->state = IAVF_FDIR_FLTR_DEL_REQUEST;\n+\t\t} else if (fltr->state == IAVF_FDIR_FLTR_INACTIVE) {\n+\t\t\tlist_del(&fltr->list);\n+\t\t\tkfree(fltr);\n+\t\t\tadapter->fdir_active_fltr--;\n+\t\t\tfltr = NULL;\n+\t\t} else {\n+\t\t\terr = -EBUSY;\n+\t\t}\n+\t} else if (adapter->fdir_active_fltr) {\n+\t\terr = -EINVAL;\n+\t}\n+\n+\tif (fltr && fltr->state == IAVF_FDIR_FLTR_DEL_REQUEST)\n+\t\tiavf_schedule_aq_request(adapter, IAVF_FLAG_AQ_DEL_FDIR_FILTER);\n+\n+\tspin_unlock_bh(&adapter->fdir_fltr_lock);\n+\treturn err;\n }\n",
      "new_path": "drivers/net/ethernet/intel/iavf/iavf_fdir.c",
      "old_path": "drivers/net/ethernet/intel/iavf/iavf_fdir.c",
      "a_mode": "100644",
      "b_mode": "100644",
      "new_file": false,
      "renamed_file": false,
      "deleted_file": false,
      "generated_file": null
    },
    {
      "diff": "@@ -128,6 +128,9 @@ int iavf_validate_fdir_fltr_masks(struct iavf_adapter *adapter,\n int iavf_fill_fdir_add_msg(struct iavf_adapter *adapter, struct iavf_fdir_fltr *fltr);\n void iavf_print_fdir_fltr(struct iavf_adapter *adapter, struct iavf_fdir_fltr *fltr);\n bool iavf_fdir_is_dup_fltr(struct iavf_adapter *adapter, struct iavf_fdir_fltr *fltr);\n-void iavf_fdir_list_add_fltr(struct iavf_adapter *adapter, struct iavf_fdir_fltr *fltr);\n-struct iavf_fdir_fltr *iavf_find_fdir_fltr_by_loc(struct iavf_adapter *adapter, u32 loc);\n+int iavf_fdir_add_fltr(struct iavf_adapter *adapter,\n+\t\t       struct iavf_fdir_fltr *fltr);\n+int iavf_fdir_del_fltr(struct iavf_adapter *adapter, u32 loc);\n+struct iavf_fdir_fltr *iavf_find_fdir_fltr(struct iavf_adapter *adapter,\n+\t\t\t\t\t   u32 loc);\n #endif /* _IAVF_FDIR_H_ */\n",
      "new_path": "drivers/net/ethernet/intel/iavf/iavf_fdir.h",
      "old_path": "drivers/net/ethernet/intel/iavf/iavf_fdir.h",
      "a_mode": "100644",
      "b_mode": "100644",
      "new_file": false,
      "renamed_file": false,
      "deleted_file": false,
      "generated_file": null
    },
    {
      "diff": "@@ -1,6 +1,8 @@\n // SPDX-License-Identifier: GPL-2.0\n /* Copyright(c) 2013 - 2018 Intel Corporation. */\n \n+#include <linux/net/intel/libie/rx.h>\n+\n #include \"iavf.h\"\n #include \"iavf_prototype.h\"\n /* All iavf tracepoints are defined by the include below, which must\n@@ -44,6 +46,7 @@ MODULE_DEVICE_TABLE(pci, iavf_pci_tbl);\n \n MODULE_ALIAS(\"i40evf\");\n MODULE_DESCRIPTION(\"Intel(R) Ethernet Adaptive Virtual Function Network Driver\");\n+MODULE_IMPORT_NS(LIBETH);\n MODULE_IMPORT_NS(LIBIE);\n MODULE_LICENSE(\"GPL v2\");\n \n@@ -714,40 +717,10 @@ static void iavf_configure_tx(struct iavf_adapter *adapter)\n  **/\n static void iavf_configure_rx(struct iavf_adapter *adapter)\n {\n-\tunsigned int rx_buf_len = IAVF_RXBUFFER_2048;\n \tstruct iavf_hw *hw = &adapter->hw;\n-\tint i;\n-\n-\t/* Legacy Rx will always default to a 2048 buffer size. */\n-#if (PAGE_SIZE < 8192)\n-\tif (!(adapter->flags & IAVF_FLAG_LEGACY_RX)) {\n-\t\tstruct net_device *netdev = adapter->netdev;\n-\n-\t\t/* For jumbo frames on systems with 4K pages we have to use\n-\t\t * an order 1 page, so we might as well increase the size\n-\t\t * of our Rx buffer to make better use of the available space\n-\t\t */\n-\t\trx_buf_len = IAVF_RXBUFFER_3072;\n-\n-\t\t/* We use a 1536 buffer size for configurations with\n-\t\t * standard Ethernet mtu.  On x86 this gives us enough room\n-\t\t * for shared info and 192 bytes of padding.\n-\t\t */\n-\t\tif (!IAVF_2K_TOO_SMALL_WITH_PADDING &&\n-\t\t    (netdev->mtu <= ETH_DATA_LEN))\n-\t\t\trx_buf_len = IAVF_RXBUFFER_1536 - NET_IP_ALIGN;\n-\t}\n-#endif\n \n-\tfor (i = 0; i < adapter->num_active_queues; i++) {\n+\tfor (u32 i = 0; i < adapter->num_active_queues; i++)\n \t\tadapter->rx_rings[i].tail = hw->hw_addr + IAVF_QRX_TAIL1(i);\n-\t\tadapter->rx_rings[i].rx_buf_len = rx_buf_len;\n-\n-\t\tif (adapter->flags & IAVF_FLAG_LEGACY_RX)\n-\t\t\tclear_ring_build_skb_enabled(&adapter->rx_rings[i]);\n-\t\telse\n-\t\t\tset_ring_build_skb_enabled(&adapter->rx_rings[i]);\n-\t}\n }\n \n /**\n@@ -1615,7 +1588,6 @@ static int iavf_alloc_queues(struct iavf_adapter *adapter)\n \t\trx_ring = &adapter->rx_rings[i];\n \t\trx_ring->queue_index = i;\n \t\trx_ring->netdev = adapter->netdev;\n-\t\trx_ring->dev = &adapter->pdev->dev;\n \t\trx_ring->count = adapter->rx_desc_count;\n \t\trx_ring->itr_setting = IAVF_ITR_RX_DEF;\n \t}\n@@ -2642,9 +2614,8 @@ static void iavf_init_config_adapter(struct iavf_adapter *adapter)\n \tiavf_set_ethtool_ops(netdev);\n \tnetdev->watchdog_timeo = 5 * HZ;\n \n-\t/* MTU range: 68 - 9710 */\n \tnetdev->min_mtu = ETH_MIN_MTU;\n-\tnetdev->max_mtu = IAVF_MAX_RXBUFFER - IAVF_PACKET_HDR_PAD;\n+\tnetdev->max_mtu = LIBIE_MAX_MTU;\n \n \tif (!is_valid_ether_addr(adapter->hw.mac.addr)) {\n \t\tdev_info(&pdev->dev, \"Invalid MAC address %pM, using random\\n\",\n@@ -3785,6 +3756,10 @@ static int iavf_parse_cls_flower(struct iavf_adapter *adapter,\n \n \t\tflow_rule_match_control(rule, &match);\n \t\taddr_type = match.key->addr_type;\n+\n+\t\tif (flow_rule_has_control_flags(match.mask->flags,\n+\t\t\t\t\t\tf->common.extack))\n+\t\t\treturn -EOPNOTSUPP;\n \t}\n \n \tif (addr_type == FLOW_DISSECTOR_KEY_IPV4_ADDRS) {\n@@ -5051,7 +5026,7 @@ static int iavf_probe(struct pci_dev *pdev, const struct pci_device_id *ent)\n  *\n  * Called when the system (VM) is entering sleep/suspend.\n  **/\n-static int __maybe_unused iavf_suspend(struct device *dev_d)\n+static int iavf_suspend(struct device *dev_d)\n {\n \tstruct net_device *netdev = dev_get_drvdata(dev_d);\n \tstruct iavf_adapter *adapter = netdev_priv(netdev);\n@@ -5079,7 +5054,7 @@ static int __maybe_unused iavf_suspend(struct device *dev_d)\n  *\n  * Called when the system (VM) is resumed from sleep/suspend.\n  **/\n-static int __maybe_unused iavf_resume(struct device *dev_d)\n+static int iavf_resume(struct device *dev_d)\n {\n \tstruct pci_dev *pdev = to_pci_dev(dev_d);\n \tstruct iavf_adapter *adapter;\n@@ -5266,14 +5241,14 @@ static void iavf_shutdown(struct pci_dev *pdev)\n \t\tpci_set_power_state(pdev, PCI_D3hot);\n }\n \n-static SIMPLE_DEV_PM_OPS(iavf_pm_ops, iavf_suspend, iavf_resume);\n+static DEFINE_SIMPLE_DEV_PM_OPS(iavf_pm_ops, iavf_suspend, iavf_resume);\n \n static struct pci_driver iavf_driver = {\n \t.name      = iavf_driver_name,\n \t.id_table  = iavf_pci_tbl,\n \t.probe     = iavf_probe,\n \t.remove    = iavf_remove,\n-\t.driver.pm = &iavf_pm_ops,\n+\t.driver.pm = pm_sleep_ptr(&iavf_pm_ops),\n \t.shutdown  = iavf_shutdown,\n };\n \n",
      "new_path": "drivers/net/ethernet/intel/iavf/iavf_main.c",
      "old_path": "drivers/net/ethernet/intel/iavf/iavf_main.c",
      "a_mode": "100644",
      "b_mode": "100644",
      "new_file": false,
      "renamed_file": false,
      "deleted_file": false,
      "generated_file": null
    },
    {
      "diff": "",
      "new_path": "drivers/net/ethernet/intel/iavf/iavf_txrx.c",
      "old_path": "drivers/net/ethernet/intel/iavf/iavf_txrx.c",
      "a_mode": "100644",
      "b_mode": "100644",
      "new_file": false,
      "renamed_file": false,
      "deleted_file": false,
      "generated_file": null
    },
    {
      "diff": "@@ -80,79 +80,8 @@ enum iavf_dyn_idx_t {\n \tBIT_ULL(IAVF_FILTER_PCTYPE_NONF_UNICAST_IPV6_UDP) | \\\n \tBIT_ULL(IAVF_FILTER_PCTYPE_NONF_MULTICAST_IPV6_UDP))\n \n-/* Supported Rx Buffer Sizes (a multiple of 128) */\n-#define IAVF_RXBUFFER_256   256\n-#define IAVF_RXBUFFER_1536  1536  /* 128B aligned standard Ethernet frame */\n-#define IAVF_RXBUFFER_2048  2048\n-#define IAVF_RXBUFFER_3072  3072  /* Used for large frames w/ padding */\n-#define IAVF_MAX_RXBUFFER   9728  /* largest size for single descriptor */\n-\n-/* NOTE: netdev_alloc_skb reserves up to 64 bytes, NET_IP_ALIGN means we\n- * reserve 2 more, and skb_shared_info adds an additional 384 bytes more,\n- * this adds up to 512 bytes of extra data meaning the smallest allocation\n- * we could have is 1K.\n- * i.e. RXBUFFER_256 --> 960 byte skb (size-1024 slab)\n- * i.e. RXBUFFER_512 --> 1216 byte skb (size-2048 slab)\n- */\n-#define IAVF_RX_HDR_SIZE IAVF_RXBUFFER_256\n-#define IAVF_PACKET_HDR_PAD (ETH_HLEN + ETH_FCS_LEN + (VLAN_HLEN * 2))\n #define iavf_rx_desc iavf_32byte_rx_desc\n \n-#define IAVF_RX_DMA_ATTR \\\n-\t(DMA_ATTR_SKIP_CPU_SYNC | DMA_ATTR_WEAK_ORDERING)\n-\n-/* Attempt to maximize the headroom available for incoming frames.  We\n- * use a 2K buffer for receives and need 1536/1534 to store the data for\n- * the frame.  This leaves us with 512 bytes of room.  From that we need\n- * to deduct the space needed for the shared info and the padding needed\n- * to IP align the frame.\n- *\n- * Note: For cache line sizes 256 or larger this value is going to end\n- *\t up negative.  In these cases we should fall back to the legacy\n- *\t receive path.\n- */\n-#if (PAGE_SIZE < 8192)\n-#define IAVF_2K_TOO_SMALL_WITH_PADDING \\\n-((NET_SKB_PAD + IAVF_RXBUFFER_1536) > SKB_WITH_OVERHEAD(IAVF_RXBUFFER_2048))\n-\n-static inline int iavf_compute_pad(int rx_buf_len)\n-{\n-\tint page_size, pad_size;\n-\n-\tpage_size = ALIGN(rx_buf_len, PAGE_SIZE / 2);\n-\tpad_size = SKB_WITH_OVERHEAD(page_size) - rx_buf_len;\n-\n-\treturn pad_size;\n-}\n-\n-static inline int iavf_skb_pad(void)\n-{\n-\tint rx_buf_len;\n-\n-\t/* If a 2K buffer cannot handle a standard Ethernet frame then\n-\t * optimize padding for a 3K buffer instead of a 1.5K buffer.\n-\t *\n-\t * For a 3K buffer we need to add enough padding to allow for\n-\t * tailroom due to NET_IP_ALIGN possibly shifting us out of\n-\t * cache-line alignment.\n-\t */\n-\tif (IAVF_2K_TOO_SMALL_WITH_PADDING)\n-\t\trx_buf_len = IAVF_RXBUFFER_3072 + SKB_DATA_ALIGN(NET_IP_ALIGN);\n-\telse\n-\t\trx_buf_len = IAVF_RXBUFFER_1536;\n-\n-\t/* if needed make room for NET_IP_ALIGN */\n-\trx_buf_len -= NET_IP_ALIGN;\n-\n-\treturn iavf_compute_pad(rx_buf_len);\n-}\n-\n-#define IAVF_SKB_PAD iavf_skb_pad()\n-#else\n-#define IAVF_2K_TOO_SMALL_WITH_PADDING false\n-#define IAVF_SKB_PAD (NET_SKB_PAD + NET_IP_ALIGN)\n-#endif\n-\n /**\n  * iavf_test_staterr - tests bits in Rx descriptor status and error fields\n  * @rx_desc: pointer to receive descriptor (in le64 format)\n@@ -271,17 +200,6 @@ struct iavf_tx_buffer {\n \tu32 tx_flags;\n };\n \n-struct iavf_rx_buffer {\n-\tdma_addr_t dma;\n-\tstruct page *page;\n-#if (BITS_PER_LONG > 32) || (PAGE_SIZE >= 65536)\n-\t__u32 page_offset;\n-#else\n-\t__u16 page_offset;\n-#endif\n-\t__u16 pagecnt_bias;\n-};\n-\n struct iavf_queue_stats {\n \tu64 packets;\n \tu64 bytes;\n@@ -293,7 +211,6 @@ struct iavf_tx_queue_stats {\n \tu64 tx_done_old;\n \tu64 tx_linearize;\n \tu64 tx_force_wb;\n-\tint prev_pkt_ctr;\n \tu64 tx_lost_interrupt;\n };\n \n@@ -301,14 +218,6 @@ struct iavf_rx_queue_stats {\n \tu64 non_eop_descs;\n \tu64 alloc_page_failed;\n \tu64 alloc_buff_failed;\n-\tu64 page_reuse_count;\n-\tu64 realloc_count;\n-};\n-\n-enum iavf_ring_state_t {\n-\t__IAVF_TX_FDIR_INIT_DONE,\n-\t__IAVF_TX_XPS_INIT_DONE,\n-\t__IAVF_RING_STATE_NBITS /* must be last */\n };\n \n /* some useful defines for virtchannel interface, which\n@@ -326,16 +235,19 @@ enum iavf_ring_state_t {\n struct iavf_ring {\n \tstruct iavf_ring *next;\t\t/* pointer to next ring in q_vector */\n \tvoid *desc;\t\t\t/* Descriptor ring memory */\n-\tstruct device *dev;\t\t/* Used for DMA mapping */\n+\tunion {\n+\t\tstruct page_pool *pp;\t/* Used on Rx for buffer management */\n+\t\tstruct device *dev;\t/* Used on Tx for DMA mapping */\n+\t};\n \tstruct net_device *netdev;\t/* netdev ring maps to */\n \tunion {\n+\t\tstruct libeth_fqe *rx_fqes;\n \t\tstruct iavf_tx_buffer *tx_bi;\n-\t\tstruct iavf_rx_buffer *rx_bi;\n \t};\n-\tDECLARE_BITMAP(state, __IAVF_RING_STATE_NBITS);\n-\tu16 queue_index;\t\t/* Queue number of ring */\n-\tu8 dcb_tc;\t\t\t/* Traffic class of ring */\n \tu8 __iomem *tail;\n+\tu32 truesize;\n+\n+\tu16 queue_index;\t\t/* Queue number of ring */\n \n \t/* high bit set means dynamic, use accessors routines to read/write.\n \t * hardware only supports 2us resolution for the ITR registers.\n@@ -345,23 +257,15 @@ struct iavf_ring {\n \tu16 itr_setting;\n \n \tu16 count;\t\t\t/* Number of descriptors */\n-\tu16 reg_idx;\t\t\t/* HW register index of the ring */\n-\tu16 rx_buf_len;\n \n \t/* used in interrupt processing */\n \tu16 next_to_use;\n \tu16 next_to_clean;\n \n-\tu8 atr_sample_rate;\n-\tu8 atr_count;\n-\n-\tbool ring_active;\t\t/* is ring online or not */\n-\tbool arm_wb;\t\t/* do something to arm write back */\n-\tu8 packet_stride;\n-\n \tu16 flags;\n #define IAVF_TXR_FLAGS_WB_ON_ITR\t\tBIT(0)\n-#define IAVF_RXR_FLAGS_BUILD_SKB_ENABLED\tBIT(1)\n+#define IAVF_TXR_FLAGS_ARM_WB\t\t\tBIT(1)\n+/* BIT(2) is free */\n #define IAVF_TXRX_FLAGS_VLAN_TAG_LOC_L2TAG1\tBIT(3)\n #define IAVF_TXR_FLAGS_VLAN_TAG_LOC_L2TAG2\tBIT(4)\n #define IAVF_RXR_FLAGS_VLAN_TAG_LOC_L2TAG2_2\tBIT(5)\n@@ -374,6 +278,7 @@ struct iavf_ring {\n \t\tstruct iavf_rx_queue_stats rx_stats;\n \t};\n \n+\tint prev_pkt_ctr;\t\t/* For Tx stall detection */\n \tunsigned int size;\t\t/* length of descriptor ring in bytes */\n \tdma_addr_t dma;\t\t\t/* physical address of ring */\n \n@@ -381,7 +286,6 @@ struct iavf_ring {\n \tstruct iavf_q_vector *q_vector;\t/* Backreference to associated vector */\n \n \tstruct rcu_head rcu;\t\t/* to avoid race on free */\n-\tu16 next_to_alloc;\n \tstruct sk_buff *skb;\t\t/* When iavf_clean_rx_ring_irq() must\n \t\t\t\t\t * return before it sees the EOP for\n \t\t\t\t\t * the current packet, we save that skb\n@@ -390,22 +294,9 @@ struct iavf_ring {\n \t\t\t\t\t * iavf_clean_rx_ring_irq() is called\n \t\t\t\t\t * for this ring.\n \t\t\t\t\t */\n-} ____cacheline_internodealigned_in_smp;\n-\n-static inline bool ring_uses_build_skb(struct iavf_ring *ring)\n-{\n-\treturn !!(ring->flags & IAVF_RXR_FLAGS_BUILD_SKB_ENABLED);\n-}\n \n-static inline void set_ring_build_skb_enabled(struct iavf_ring *ring)\n-{\n-\tring->flags |= IAVF_RXR_FLAGS_BUILD_SKB_ENABLED;\n-}\n-\n-static inline void clear_ring_build_skb_enabled(struct iavf_ring *ring)\n-{\n-\tring->flags &= ~IAVF_RXR_FLAGS_BUILD_SKB_ENABLED;\n-}\n+\tu32 rx_buf_len;\n+} ____cacheline_internodealigned_in_smp;\n \n #define IAVF_ITR_ADAPTIVE_MIN_INC\t0x0002\n #define IAVF_ITR_ADAPTIVE_MIN_USECS\t0x0002\n@@ -428,17 +319,6 @@ struct iavf_ring_container {\n #define iavf_for_each_ring(pos, head) \\\n \tfor (pos = (head).ring; pos != NULL; pos = pos->next)\n \n-static inline unsigned int iavf_rx_pg_order(struct iavf_ring *ring)\n-{\n-#if (PAGE_SIZE < 8192)\n-\tif (ring->rx_buf_len > (PAGE_SIZE / 2))\n-\t\treturn 1;\n-#endif\n-\treturn 0;\n-}\n-\n-#define iavf_rx_pg_size(_ring) (PAGE_SIZE << iavf_rx_pg_order(_ring))\n-\n bool iavf_alloc_rx_buffers(struct iavf_ring *rxr, u16 cleaned_count);\n netdev_tx_t iavf_xmit_frame(struct sk_buff *skb, struct net_device *netdev);\n int iavf_setup_tx_descriptors(struct iavf_ring *tx_ring);\n",
      "new_path": "drivers/net/ethernet/intel/iavf/iavf_txrx.h",
      "old_path": "drivers/net/ethernet/intel/iavf/iavf_txrx.h",
      "a_mode": "100644",
      "b_mode": "100644",
      "new_file": false,
      "renamed_file": false,
      "deleted_file": false,
      "generated_file": null
    },
    {
      "diff": "@@ -10,8 +10,6 @@\n #include \"iavf_adminq.h\"\n #include \"iavf_devids.h\"\n \n-#define IAVF_RXQ_CTX_DBUFF_SHIFT 7\n-\n /* IAVF_MASK is a macro used on 32 bit registers */\n #define IAVF_MASK(mask, shift) ((u32)(mask) << (shift))\n \n",
      "new_path": "drivers/net/ethernet/intel/iavf/iavf_type.h",
      "old_path": "drivers/net/ethernet/intel/iavf/iavf_type.h",
      "a_mode": "100644",
      "b_mode": "100644",
      "new_file": false,
      "renamed_file": false,
      "deleted_file": false,
      "generated_file": null
    },
    {
      "diff": "@@ -1,6 +1,8 @@\n // SPDX-License-Identifier: GPL-2.0\n /* Copyright(c) 2013 - 2018 Intel Corporation. */\n \n+#include <linux/net/intel/libie/rx.h>\n+\n #include \"iavf.h\"\n #include \"iavf_prototype.h\"\n \n@@ -268,13 +270,13 @@ int iavf_get_vf_vlan_v2_caps(struct iavf_adapter *adapter)\n void iavf_configure_queues(struct iavf_adapter *adapter)\n {\n \tstruct virtchnl_vsi_queue_config_info *vqci;\n-\tint i, max_frame = adapter->vf_res->max_mtu;\n \tint pairs = adapter->num_active_queues;\n \tstruct virtchnl_queue_pair_info *vqpi;\n+\tu32 i, max_frame;\n \tsize_t len;\n \n-\tif (max_frame > IAVF_MAX_RXBUFFER || !max_frame)\n-\t\tmax_frame = IAVF_MAX_RXBUFFER;\n+\tmax_frame = LIBIE_MAX_RX_FRM_LEN(adapter->rx_rings->pp->p.offset);\n+\tmax_frame = min_not_zero(adapter->vf_res->max_mtu, max_frame);\n \n \tif (adapter->current_op != VIRTCHNL_OP_UNKNOWN) {\n \t\t/* bail because we already have a command pending */\n@@ -288,11 +290,6 @@ void iavf_configure_queues(struct iavf_adapter *adapter)\n \tif (!vqci)\n \t\treturn;\n \n-\t/* Limit maximum frame size when jumbo frames is not enabled */\n-\tif (!(adapter->flags & IAVF_FLAG_LEGACY_RX) &&\n-\t    (adapter->netdev->mtu <= ETH_DATA_LEN))\n-\t\tmax_frame = IAVF_RXBUFFER_1536 - NET_IP_ALIGN;\n-\n \tvqci->vsi_id = adapter->vsi_res->vsi_id;\n \tvqci->num_queue_pairs = pairs;\n \tvqpi = vqci->qpair;\n@@ -309,9 +306,7 @@ void iavf_configure_queues(struct iavf_adapter *adapter)\n \t\tvqpi->rxq.ring_len = adapter->rx_rings[i].count;\n \t\tvqpi->rxq.dma_ring_addr = adapter->rx_rings[i].dma;\n \t\tvqpi->rxq.max_pkt_size = max_frame;\n-\t\tvqpi->rxq.databuffer_size =\n-\t\t\tALIGN(adapter->rx_rings[i].rx_buf_len,\n-\t\t\t      BIT_ULL(IAVF_RXQ_CTX_DBUFF_SHIFT));\n+\t\tvqpi->rxq.databuffer_size = adapter->rx_rings[i].rx_buf_len;\n \t\tif (CRC_OFFLOAD_ALLOWED(adapter))\n \t\t\tvqpi->rxq.crc_disable = !!(adapter->netdev->features &\n \t\t\t\t\t\t   NETIF_F_RXFCS);\n",
      "new_path": "drivers/net/ethernet/intel/iavf/iavf_virtchnl.c",
      "old_path": "drivers/net/ethernet/intel/iavf/iavf_virtchnl.c",
      "a_mode": "100644",
      "b_mode": "100644",
      "new_file": false,
      "renamed_file": false,
      "deleted_file": false,
      "generated_file": null
    },
    {
      "diff": "@@ -6,6 +6,23 @@\n \n #include <net/libeth/rx.h>\n \n+/* Rx buffer management */\n+\n+/* The largest size for a single descriptor as per HW */\n+#define LIBIE_MAX_RX_BUF_LEN\t9728U\n+/* \"True\" HW-writeable space: minimum from SW and HW values */\n+#define LIBIE_RX_BUF_LEN(hr)\tmin_t(u32, LIBETH_RX_PAGE_LEN(hr),\t\\\n+\t\t\t\t      LIBIE_MAX_RX_BUF_LEN)\n+\n+/* The maximum frame size as per HW (S/G) */\n+#define __LIBIE_MAX_RX_FRM_LEN\t16382U\n+/* ATST, HW can chain up to 5 Rx descriptors */\n+#define LIBIE_MAX_RX_FRM_LEN(hr)\t\t\t\t\t\\\n+\tmin_t(u32, __LIBIE_MAX_RX_FRM_LEN, LIBIE_RX_BUF_LEN(hr) * 5)\n+/* Maximum frame size minus LL overhead */\n+#define LIBIE_MAX_MTU\t\t\t\t\t\t\t\\\n+\t(LIBIE_MAX_RX_FRM_LEN(LIBETH_MAX_HEADROOM) - LIBETH_RX_LL_LEN)\n+\n /* O(1) converting i40e/ice/iavf's 8/10-bit hardware packet type to a parsed\n  * bitfield struct.\n  */\n",
      "new_path": "include/linux/net/intel/libie/rx.h",
      "old_path": "include/linux/net/intel/libie/rx.h",
      "a_mode": "100644",
      "b_mode": "100644",
      "new_file": false,
      "renamed_file": false,
      "deleted_file": false,
      "generated_file": null
    }
  ],
  "compare_timeout": false,
  "compare_same_ref": false,
  "web_url": "https://gitlab.com/redhat/centos-stream/src/kernel/centos-stream-9/-/compare/3ce0b2c330a41dd577c11e50bd822ba91cdc3421...ce56b02210545323e947dfdcae1120cdb140bfc6"
}
