{
  "data": {
    "project": {
      "mr": {
        "commits": {
          "pageInfo": {
            "hasNextPage": false,
            "endCursor": "NA"
          },
          "nodes": [
            {
              "author": {
                "gid": "gid://gitlab/User/8262039",
                "name": "Donald Dutile",
                "email": "ddutile@redhat.com",
                "username": "ddutile"
              },
              "authorEmail": "ddutile@redhat.com",
              "authorName": "Donald Dutile",
              "authoredDate": "2024-06-28T16:00:04-04:00",
              "description": "\nJIRA: https://issues.redhat.com/browse/RHEL-36544\n\ncommit 81617c17bf58f008a57da74b97e60a0bf8e971fd\nAuthor: Ankit Agrawal <ankita@nvidia.com>\nDate:   Thu Feb 29 19:39:34 2024 +0000\n\n    vfio/nvgrace-gpu: Convey kvm to map device memory region as noncached\n\n    The NVIDIA Grace Hopper GPUs have device memory that is supposed to be\n    used as a regular RAM. It is accessible through CPU-GPU chip-to-chip\n    cache coherent interconnect and is present in the system physical\n    address space. The device memory is split into two regions - termed\n    as usemem and resmem - in the system physical address space,\n    with each region mapped and exposed to the VM as a separate fake\n    device BAR [1].\n\n    Owing to a hardware defect for Multi-Instance GPU (MIG) feature [2],\n    there is a requirement - as a workaround - for the resmem BAR to\n    display uncached memory characteristics. Based on [3], on system with\n    FWB enabled such as Grace Hopper, the requisite properties\n    (uncached, unaligned access) can be achieved through a VM mapping (S1)\n    of NORMAL_NC and host mapping (S2) of MT_S2_FWB_NORMAL_NC.\n\n    KVM currently maps the MMIO region in S2 as MT_S2_FWB_DEVICE_nGnRE by\n    default. The fake device BARs thus displays DEVICE_nGnRE behavior in the\n    VM.\n\n    The following table summarizes the behavior for the various S1 and S2\n    mapping combinations for systems with FWB enabled [3].\n    S1           |  S2           | Result\n    NORMAL_NC    |  NORMAL_NC    | NORMAL_NC\n    NORMAL_NC    |  DEVICE_nGnRE | DEVICE_nGnRE\n\n    Recently a change was added that modifies this default behavior and\n    make KVM map MMIO as MT_S2_FWB_NORMAL_NC when a VMA flag\n    VM_ALLOW_ANY_UNCACHED is set [4]. Setting S2 as MT_S2_FWB_NORMAL_NC\n    provides the desired behavior (uncached, unaligned access) for resmem.\n\n    To use VM_ALLOW_ANY_UNCACHED flag, the platform must guarantee that\n    no action taken on the MMIO mapping can trigger an uncontained\n    failure. The Grace Hopper satisfies this requirement. So set\n    the VM_ALLOW_ANY_UNCACHED flag in the VMA.\n\n    Applied over next-20240227.\n    base-commit: 22ba90670a51\n\n    Link: https://lore.kernel.org/all/20240220115055.23546-4-ankita@nvidia.com/ [1]\n    Link: https://www.nvidia.com/en-in/technologies/multi-instance-gpu/ [2]\n    Link: https://developer.arm.com/documentation/ddi0487/latest/ section D8.5.5 [3]\n    Link: https://lore.kernel.org/all/20240224150546.368-1-ankita@nvidia.com/ [4]\n\n    Cc: Alex Williamson <alex.williamson@redhat.com>\n    Cc: Kevin Tian <kevin.tian@intel.com>\n    Cc: Jason Gunthorpe <jgg@nvidia.com>\n    Cc: Vikram Sethi <vsethi@nvidia.com>\n    Cc: Zhi Wang <zhiw@nvidia.com>\n    Signed-off-by: Ankit Agrawal <ankita@nvidia.com>\n    Reviewed-by: Jason Gunthorpe <jgg@nvidia.com>\n    Link: https://lore.kernel.org/r/20240229193934.2417-1-ankita@nvidia.com\n    Signed-off-by: Alex Williamson <alex.williamson@redhat.com>\n\nSigned-off-by: Donald Dutile <ddutile@redhat.com>",
              "sha": "2967cab72e19e1e8245323424311be92a2aca920",
              "title": "vfio/nvgrace-gpu: Convey kvm to map device memory region as noncached",
              "diffs": [
                {
                  "diff": "@@ -160,8 +160,17 @@ static int nvgrace_gpu_mmap(struct vfio_device *core_vdev,\n \t * The carved out region of the device memory needs the NORMAL_NC\n \t * property. Communicate as such to the hypervisor.\n \t */\n-\tif (index == RESMEM_REGION_INDEX)\n+\tif (index == RESMEM_REGION_INDEX) {\n+\t\t/*\n+\t\t * The nvgrace-gpu module has no issues with uncontained\n+\t\t * failures on NORMAL_NC accesses. VM_ALLOW_ANY_UNCACHED is\n+\t\t * set to communicate to the KVM to S2 map as NORMAL_NC.\n+\t\t * This opens up guest usage of NORMAL_NC for this mapping.\n+\t\t */\n+\t\tvm_flags_set(vma, VM_ALLOW_ANY_UNCACHED);\n+\n \t\tvma->vm_page_prot = pgprot_writecombine(vma->vm_page_prot);\n+\t}\n \n \t/*\n \t * Perform a PFN map to the memory and back the device BAR by the\n",
                  "oldPath": "drivers/vfio/pci/nvgrace-gpu/main.c",
                  "newPath": "drivers/vfio/pci/nvgrace-gpu/main.c",
                  "aMode": "100644",
                  "bMode": "100644",
                  "newFile": "false",
                  "renamedFile": "false",
                  "deletedFile": "false"
                }
              ]
            },
            {
              "author": {
                "gid": "gid://gitlab/User/8262039",
                "name": "Donald Dutile",
                "email": "ddutile@redhat.com",
                "username": "ddutile"
              },
              "authorEmail": "ddutile@redhat.com",
              "authorName": "Donald Dutile",
              "authoredDate": "2024-06-28T16:00:04-04:00",
              "description": "\nJIRA: https://issues.redhat.com/browse/RHEL-36543\n\ncommit a39d3a966a090989b89c0287a67cd98c85ae2f52\nAuthor: Ankit Agrawal <ankita@nvidia.com>\nDate:   Sat Feb 24 20:35:46 2024 +0530\n\n    vfio: Convey kvm that the vfio-pci device is wc safe\n\n    The VM_ALLOW_ANY_UNCACHED flag is implemented for ARM64,\n    allowing KVM stage 2 device mapping attributes to use Normal-NC\n    rather than DEVICE_nGnRE, which allows guest mappings supporting\n    write-combining attributes (WC). ARM does not architecturally\n    guarantee this is safe, and indeed some MMIO regions like the GICv2\n    VCPU interface can trigger uncontained faults if Normal-NC is used.\n\n    To safely use VFIO in KVM the platform must guarantee full safety\n    in the guest where no action taken against a MMIO mapping can\n    trigger an uncontained failure. The expectation is that most VFIO PCI\n    platforms support this for both mapping types, at least in common\n    flows, based on some expectations of how PCI IP is integrated. So\n    make vfio-pci set the VM_ALLOW_ANY_UNCACHED flag.\n\n    Suggested-by: Catalin Marinas <catalin.marinas@arm.com>\n    Acked-by: Jason Gunthorpe <jgg@nvidia.com>\n    Acked-by: Catalin Marinas <catalin.marinas@arm.com>\n    Acked-by: Alex Williamson <alex.williamson@redhat.com>\n    Reviewed-by: David Hildenbrand <david@redhat.com>\n    Reviewed-by: Marc Zyngier <maz@kernel.org>\n    Signed-off-by: Ankit Agrawal <ankita@nvidia.com>\n    Link: https://lore.kernel.org/r/20240224150546.368-5-ankita@nvidia.com\n    Signed-off-by: Oliver Upton <oliver.upton@linux.dev>\n\nSigned-off-by: Donald Dutile <ddutile@redhat.com>",
              "sha": "fc7091642be7bf407ac4f668dcc811677b87709f",
              "title": "vfio: Convey kvm that the vfio-pci device is wc safe",
              "diffs": [
                {
                  "diff": "@@ -1862,8 +1862,25 @@ int vfio_pci_core_mmap(struct vfio_device *core_vdev, struct vm_area_struct *vma\n \t/*\n \t * See remap_pfn_range(), called from vfio_pci_fault() but we can't\n \t * change vm_flags within the fault handler.  Set them now.\n+\t *\n+\t * VM_ALLOW_ANY_UNCACHED: The VMA flag is implemented for ARM64,\n+\t * allowing KVM stage 2 device mapping attributes to use Normal-NC\n+\t * rather than DEVICE_nGnRE, which allows guest mappings\n+\t * supporting write-combining attributes (WC). ARM does not\n+\t * architecturally guarantee this is safe, and indeed some MMIO\n+\t * regions like the GICv2 VCPU interface can trigger uncontained\n+\t * faults if Normal-NC is used.\n+\t *\n+\t * To safely use VFIO in KVM the platform must guarantee full\n+\t * safety in the guest where no action taken against a MMIO\n+\t * mapping can trigger an uncontained failure. The assumption is\n+\t * that most VFIO PCI platforms support this for both mapping types,\n+\t * at least in common flows, based on some expectations of how\n+\t * PCI IP is integrated. Hence VM_ALLOW_ANY_UNCACHED is set in\n+\t * the VMA flags.\n \t */\n-\tvm_flags_set(vma, VM_IO | VM_PFNMAP | VM_DONTEXPAND | VM_DONTDUMP);\n+\tvm_flags_set(vma, VM_ALLOW_ANY_UNCACHED | VM_IO | VM_PFNMAP |\n+\t\t\tVM_DONTEXPAND | VM_DONTDUMP);\n \tvma->vm_ops = &vfio_pci_mmap_ops;\n \n \treturn 0;\n",
                  "oldPath": "drivers/vfio/pci/vfio_pci_core.c",
                  "newPath": "drivers/vfio/pci/vfio_pci_core.c",
                  "aMode": "100644",
                  "bMode": "100644",
                  "newFile": "false",
                  "renamedFile": "false",
                  "deletedFile": "false"
                }
              ]
            },
            {
              "author": {
                "gid": "gid://gitlab/User/8262039",
                "name": "Donald Dutile",
                "email": "ddutile@redhat.com",
                "username": "ddutile"
              },
              "authorEmail": "ddutile@redhat.com",
              "authorName": "Donald Dutile",
              "authoredDate": "2024-06-28T16:00:04-04:00",
              "description": "\nJIRA: https://issues.redhat.com/browse/RHEL-36542\nSigned-off-by: Donald Dutile <ddutile@redhat.com>",
              "sha": "a56c8b2c1bdf301eb6e3ab8bdccb8b6345fad3a1",
              "title": "Add vfio/nvgrace-gpu driver CONFIG to RHEL-9.5 ARM64",
              "diffs": [
                {
                  "diff": "@@ -0,0 +1 @@\n+CONFIG_NVGRACE_GPU_VFIO_PCI=m\n",
                  "oldPath": "redhat/configs/common/generic/arm/aarch64/CONFIG_NVGRACE_GPU_VFIO_PCI",
                  "newPath": "redhat/configs/common/generic/arm/aarch64/CONFIG_NVGRACE_GPU_VFIO_PCI",
                  "aMode": "0",
                  "bMode": "100644",
                  "newFile": "true",
                  "renamedFile": "false",
                  "deletedFile": "false"
                }
              ]
            },
            {
              "author": {
                "gid": "gid://gitlab/User/8262039",
                "name": "Donald Dutile",
                "email": "ddutile@redhat.com",
                "username": "ddutile"
              },
              "authorEmail": "ddutile@redhat.com",
              "authorName": "Donald Dutile",
              "authoredDate": "2024-06-28T16:00:04-04:00",
              "description": "\nJIRA: https://issues.redhat.com/browse/RHEL-36542\n\ncommit 701ab935859fcfd4a8c8a97f3ee4fb5294a9d481\nAuthor: Ankit Agrawal <ankita@nvidia.com>\nDate:   Tue Feb 20 17:20:55 2024 +0530\n\n    vfio/nvgrace-gpu: Add vfio pci variant module for grace hopper\n\n    NVIDIA's upcoming Grace Hopper Superchip provides a PCI-like device\n    for the on-chip GPU that is the logical OS representation of the\n    internal proprietary chip-to-chip cache coherent interconnect.\n\n    The device is peculiar compared to a real PCI device in that whilst\n    there is a real 64b PCI BAR1 (comprising region 2 & region 3) on the\n    device, it is not used to access device memory once the faster\n    chip-to-chip interconnect is initialized (occurs at the time of host\n    system boot). The device memory is accessed instead using the chip-to-chip\n    interconnect that is exposed as a contiguous physically addressable\n    region on the host. This device memory aperture can be obtained from host\n    ACPI table using device_property_read_u64(), according to the FW\n    specification. Since the device memory is cache coherent with the CPU,\n    it can be mmap into the user VMA with a cacheable mapping using\n    remap_pfn_range() and used like a regular RAM. The device memory\n    is not added to the host kernel, but mapped directly as this reduces\n    memory wastage due to struct pages.\n\n    There is also a requirement of a minimum reserved 1G uncached region\n    (termed as resmem) to support the Multi-Instance GPU (MIG) feature [1].\n    This is to work around a HW defect. Based on [2], the requisite properties\n    (uncached, unaligned access) can be achieved through a VM mapping (S1)\n    of NORMAL_NC and host (S2) mapping with MemAttr[2:0]=0b101. To provide\n    a different non-cached property to the reserved 1G region, it needs to\n    be carved out from the device memory and mapped as a separate region\n    in Qemu VMA with pgprot_writecombine(). pgprot_writecombine() sets the\n    Qemu VMA page properties (pgprot) as NORMAL_NC.\n\n    Provide a VFIO PCI variant driver that adapts the unique device memory\n    representation into a more standard PCI representation facing userspace.\n\n    The variant driver exposes these two regions - the non-cached reserved\n    (resmem) and the cached rest of the device memory (termed as usemem) as\n    separate VFIO 64b BAR regions. This is divergent from the baremetal\n    approach, where the device memory is exposed as a device memory region.\n    The decision for a different approach was taken in view of the fact that\n    it would necessiate additional code in Qemu to discover and insert those\n    regions in the VM IPA, along with the additional VM ACPI DSDT changes to\n    communicate the device memory region IPA to the VM workloads. Moreover,\n    this behavior would have to be added to a variety of emulators (beyond\n    top of tree Qemu) out there desiring grace hopper support.\n\n    Since the device implements 64-bit BAR0, the VFIO PCI variant driver\n    maps the uncached carved out region to the next available PCI BAR (i.e.\n    comprising of region 2 and 3). The cached device memory aperture is\n    assigned BAR region 4 and 5. Qemu will then naturally generate a PCI\n    device in the VM with the uncached aperture reported as BAR2 region,\n    the cacheable as BAR4. The variant driver provides emulation for these\n    fake BARs' PCI config space offset registers.\n\n    The hardware ensures that the system does not crash when the memory\n    is accessed with the memory enable turned off. It synthesis ~0 reads\n    and dropped writes on such access. So there is no need to support the\n    disablement/enablement of BAR through PCI_COMMAND config space register.\n\n    The memory layout on the host looks like the following:\n                   devmem (memlength)\n    |--------------------------------------------------|\n    |-------------cached------------------------|--NC--|\n    |                                           |\n    usemem.memphys                              resmem.memphys\n\n    PCI BARs need to be aligned to the power-of-2, but the actual memory on the\n    device may not. A read or write access to the physical address from the\n    last device PFN up to the next power-of-2 aligned physical address\n    results in reading ~0 and dropped writes. Note that the GPU device\n    driver [6] is capable of knowing the exact device memory size through\n    separate means. The device memory size is primarily kept in the system\n    ACPI tables for use by the VFIO PCI variant module.\n\n    Note that the usemem memory is added by the VM Nvidia device driver [5]\n    to the VM kernel as memblocks. Hence make the usable memory size memblock\n    (MEMBLK_SIZE) aligned. This is a hardwired ABI value between the GPU FW and\n    VFIO driver. The VM device driver make use of the same value for its\n    calculation to determine USEMEM size.\n\n    Currently there is no provision in KVM for a S2 mapping with\n    MemAttr[2:0]=0b101, but there is an ongoing effort to provide the same [3].\n    As previously mentioned, resmem is mapped pgprot_writecombine(), that\n    sets the Qemu VMA page properties (pgprot) as NORMAL_NC. Using the\n    proposed changes in [3] and [4], KVM marks the region with\n    MemAttr[2:0]=0b101 in S2.\n\n    If the device memory properties are not present, the driver registers the\n    vfio-pci-core function pointers. Since there are no ACPI memory properties\n    generated for the VM, the variant driver inside the VM will only use\n    the vfio-pci-core ops and hence try to map the BARs as non cached. This\n    is not a problem as the CPUs have FWB enabled which blocks the VM\n    mapping's ability to override the cacheability set by the host mapping.\n\n    This goes along with a qemu series [6] to provides the necessary\n    implementation of the Grace Hopper Superchip firmware specification so\n    that the guest operating system can see the correct ACPI modeling for\n    the coherent GPU device. Verified with the CUDA workload in the VM.\n\n    [1] https://www.nvidia.com/en-in/technologies/multi-instance-gpu/\n    [2] section D8.5.5 of https://developer.arm.com/documentation/ddi0487/latest/\n    [3] https://lore.kernel.org/all/20240211174705.31992-1-ankita@nvidia.com/\n    [4] https://lore.kernel.org/all/20230907181459.18145-2-ankita@nvidia.com/\n    [5] https://github.com/NVIDIA/open-gpu-kernel-modules\n    [6] https://lore.kernel.org/all/20231203060245.31593-1-ankita@nvidia.com/\n\n    Reviewed-by: Kevin Tian <kevin.tian@intel.com>\n    Reviewed-by: Yishai Hadas <yishaih@nvidia.com>\n    Reviewed-by: Zhi Wang <zhi.wang.linux@gmail.com>\n    Signed-off-by: Aniket Agashe <aniketa@nvidia.com>\n    Signed-off-by: Ankit Agrawal <ankita@nvidia.com>\n    Link: https://lore.kernel.org/r/20240220115055.23546-4-ankita@nvidia.com\n    Signed-off-by: Alex Williamson <alex.williamson@redhat.com>\n\nSigned-off-by: Donald Dutile <ddutile@redhat.com>",
              "sha": "f2cc3944674b4f1badb03278d7cf941303dd0161",
              "title": "vfio/nvgrace-gpu: Add vfio pci variant module for grace hopper",
              "diffs": [
                {
                  "diff": "@@ -20279,6 +20279,12 @@ F:\tdrivers/vfio/mdev/\n F:\tinclude/linux/mdev.h\n F:\tsamples/vfio-mdev/\n \n+VFIO NVIDIA GRACE GPU DRIVER\n+M:\tAnkit Agrawal <ankita@nvidia.com>\n+L:\tkvm@vger.kernel.org\n+S:\tSupported\n+F:\tdrivers/vfio/pci/nvgrace-gpu/\n+\n VFIO PCI DEVICE SPECIFIC DRIVERS\n R:\tJason Gunthorpe <jgg@nvidia.com>\n R:\tYishai Hadas <yishaih@nvidia.com>\n",
                  "oldPath": "MAINTAINERS",
                  "newPath": "MAINTAINERS",
                  "aMode": "100644",
                  "bMode": "100644",
                  "newFile": "false",
                  "renamedFile": "false",
                  "deletedFile": "false"
                },
                {
                  "diff": "@@ -62,4 +62,6 @@ endif\n \n source \"drivers/vfio/pci/mlx5/Kconfig\"\n \n+source \"drivers/vfio/pci/nvgrace-gpu/Kconfig\"\n+\n endmenu\n",
                  "oldPath": "drivers/vfio/pci/Kconfig",
                  "newPath": "drivers/vfio/pci/Kconfig",
                  "aMode": "100644",
                  "bMode": "100644",
                  "newFile": "false",
                  "renamedFile": "false",
                  "deletedFile": "false"
                },
                {
                  "diff": "@@ -9,3 +9,5 @@ vfio-pci-$(CONFIG_VFIO_PCI_IGD) += vfio_pci_igd.o\n obj-$(CONFIG_VFIO_PCI) += vfio-pci.o\n \n obj-$(CONFIG_MLX5_VFIO_PCI)           += mlx5/\n+\n+obj-$(CONFIG_NVGRACE_GPU_VFIO_PCI) += nvgrace-gpu/\n",
                  "oldPath": "drivers/vfio/pci/Makefile",
                  "newPath": "drivers/vfio/pci/Makefile",
                  "aMode": "100644",
                  "bMode": "100644",
                  "newFile": "false",
                  "renamedFile": "false",
                  "deletedFile": "false"
                },
                {
                  "diff": "@@ -0,0 +1,10 @@\n+# SPDX-License-Identifier: GPL-2.0-only\n+config NVGRACE_GPU_VFIO_PCI\n+\ttristate \"VFIO support for the GPU in the NVIDIA Grace Hopper Superchip\"\n+\tdepends on ARM64 || (COMPILE_TEST && 64BIT)\n+\tselect VFIO_PCI_CORE\n+\thelp\n+\t  VFIO support for the GPU in the NVIDIA Grace Hopper Superchip is\n+\t  required to assign the GPU device to userspace using KVM/qemu/etc.\n+\n+\t  If you don't know what to do here, say N.\n",
                  "oldPath": "drivers/vfio/pci/nvgrace-gpu/Kconfig",
                  "newPath": "drivers/vfio/pci/nvgrace-gpu/Kconfig",
                  "aMode": "0",
                  "bMode": "100644",
                  "newFile": "true",
                  "renamedFile": "false",
                  "deletedFile": "false"
                },
                {
                  "diff": "@@ -0,0 +1,3 @@\n+# SPDX-License-Identifier: GPL-2.0-only\n+obj-$(CONFIG_NVGRACE_GPU_VFIO_PCI) += nvgrace-gpu-vfio-pci.o\n+nvgrace-gpu-vfio-pci-y := main.o\n",
                  "oldPath": "drivers/vfio/pci/nvgrace-gpu/Makefile",
                  "newPath": "drivers/vfio/pci/nvgrace-gpu/Makefile",
                  "aMode": "0",
                  "bMode": "100644",
                  "newFile": "true",
                  "renamedFile": "false",
                  "deletedFile": "false"
                },
                {
                  "diff": "",
                  "oldPath": "drivers/vfio/pci/nvgrace-gpu/main.c",
                  "newPath": "drivers/vfio/pci/nvgrace-gpu/main.c",
                  "aMode": "0",
                  "bMode": "100644",
                  "newFile": "true",
                  "renamedFile": "false",
                  "deletedFile": "false"
                }
              ]
            }
          ]
        }
      }
    }
  }
}
