{
  "allowFailure": false,
  "id": "gid://gitlab/Ci::Bridge/8327889404",
  "name": "c9s_merge_request",
  "createdAt": "2024-11-11T21:05:10Z",
  "pipeline": {
    "id": "gid://gitlab/Ci::Pipeline/1537088677"
  },
  "status": "FAILED",
  "downstreamPipeline": {
    "id": "gid://gitlab/Ci::Pipeline/1537088748",
    "project": {
      "id": "gid://gitlab/Project/18194050",
      "fullPath": "redhat/red-hat-ci-tools/kernel/cki-internal-pipelines/cki-trusted-contributors"
    },
    "status": "FAILED",
    "stages": {
      "nodes": [
        {
          "name": "prepare",
          "jobs": {
            "nodes": [
              {
                "status": "SUCCESS"
              },
              {
                "status": "SUCCESS"
              },
              {
                "status": "SUCCESS"
              },
              {
                "status": "SUCCESS"
              },
              {
                "status": "SUCCESS"
              }
            ]
          }
        },
        {
          "name": "merge",
          "jobs": {
            "nodes": [
              {
                "status": "FAILED"
              }
            ]
          }
        },
        {
          "name": "build",
          "jobs": {
            "nodes": [
              {
                "status": "SKIPPED"
              },
              {
                "status": "SKIPPED"
              },
              {
                "status": "SKIPPED"
              },
              {
                "status": "SKIPPED"
              },
              {
                "status": "SKIPPED"
              },
              {
                "status": "SKIPPED"
              },
              {
                "status": "SKIPPED"
              },
              {
                "status": "SKIPPED"
              },
              {
                "status": "SKIPPED"
              }
            ]
          }
        },
        {
          "name": "build-tools",
          "jobs": {
            "nodes": [
              {
                "status": "SKIPPED"
              },
              {
                "status": "SKIPPED"
              },
              {
                "status": "SKIPPED"
              },
              {
                "status": "SKIPPED"
              }
            ]
          }
        },
        {
          "name": "publish",
          "jobs": {
            "nodes": [
              {
                "status": "SKIPPED"
              },
              {
                "status": "SKIPPED"
              },
              {
                "status": "SKIPPED"
              },
              {
                "status": "SKIPPED"
              },
              {
                "status": "SKIPPED"
              },
              {
                "status": "SKIPPED"
              },
              {
                "status": "SKIPPED"
              },
              {
                "status": "SKIPPED"
              }
            ]
          }
        },
        {
          "name": "setup",
          "jobs": {
            "nodes": [
              {
                "status": "SKIPPED"
              },
              {
                "status": "SKIPPED"
              },
              {
                "status": "SKIPPED"
              },
              {
                "status": "SKIPPED"
              },
              {
                "status": "SKIPPED"
              },
              {
                "status": "SKIPPED"
              },
              {
                "status": "SKIPPED"
              },
              {
                "status": "SKIPPED"
              }
            ]
          }
        },
        {
          "name": "test",
          "jobs": {
            "nodes": [
              {
                "status": "SKIPPED"
              },
              {
                "status": "SKIPPED"
              },
              {
                "status": "SKIPPED"
              },
              {
                "status": "SKIPPED"
              },
              {
                "status": "SKIPPED"
              },
              {
                "status": "SKIPPED"
              },
              {
                "status": "SKIPPED"
              },
              {
                "status": "SKIPPED"
              }
            ]
          }
        },
        {
          "name": "kernel-results",
          "jobs": {
            "nodes": [
              {
                "status": "SKIPPED"
              },
              {
                "status": "SKIPPED"
              },
              {
                "status": "SKIPPED"
              },
              {
                "status": "SKIPPED"
              },
              {
                "status": "SKIPPED"
              },
              {
                "status": "SKIPPED"
              },
              {
                "status": "SKIPPED"
              },
              {
                "status": "SKIPPED"
              }
            ]
          }
        }
      ]
    }
  }
}
