{
  "expand": "operations,versionedRepresentations,editmeta,changelog,renderedFields",
  "id": "16141032",
  "self": "https://issues.redhat.com/rest/api/2/issue/16141032",
  "key": "RHEL-47894",
  "fields": {
    "issuetype": {
      "self": "https://issues.redhat.com/rest/api/2/issuetype/1",
      "id": "1",
      "description": "A problem that impairs or prevents the functions of the product.",
      "iconUrl": "https://issues.redhat.com/secure/viewavatar?size=xsmall&avatarId=13263&avatarType=issuetype",
      "name": "Bug",
      "subtask": false,
      "avatarId": 13263
    },
    "customfield_12318141": null,
    "customfield_12322640": null,
    "components": [
      {
        "self": "https://issues.redhat.com/rest/api/2/component/12369823",
        "id": "12369823",
        "name": "kernel / Desktop / USB",
        "description": " USB"
      }
    ],
    "customfield_12316142": null,
    "project": {
      "self": "https://issues.redhat.com/rest/api/2/project/12332745",
      "id": "12332745",
      "key": "RHEL",
      "name": "RHEL",
      "projectTypeKey": "software",
      "avatarUrls": {
        "48x48": "https://issues.redhat.com/secure/projectavatar?pid=12332745&avatarId=17271",
        "24x24": "https://issues.redhat.com/secure/projectavatar?size=small&pid=12332745&avatarId=17271",
        "16x16": "https://issues.redhat.com/secure/projectavatar?size=xsmall&pid=12332745&avatarId=17271",
        "32x32": "https://issues.redhat.com/secure/projectavatar?size=medium&pid=12332745&avatarId=17271"
      },
      "projectCategory": {
        "self": "https://issues.redhat.com/rest/api/2/projectCategory/10630",
        "id": "10630",
        "description": "These are projects which will be migrated to Red hat Jira (issues.redhat.com)",
        "name": "Product Development-RHEL"
      }
    },
    "fixVersions": [
      {
        "self": "https://issues.redhat.com/rest/api/2/version/12417802",
        "id": "12417802",
        "description": "PPSync [release:2602]",
        "name": "rhel-9.4.z",
        "archived": false,
        "released": true
      }
    ],
    "resolution": null,
    "customfield_12324041": "# lead stream commit hashes to backport\n52720deac47e1c7f8afedf14f812e35a320152fb",
    "customfield_12317259": [
      {
        "self": "https://issues.redhat.com/rest/api/2/customFieldOption/15230",
        "value": "sst_kernel_maintainers",
        "id": "15230",
        "disabled": false
      }
    ],
    "summary": "CVE-2024-40927 kernel: xhci: Handle TD clearing for multiple streams case [rhel-9.4.z]",
    "customfield_12321540": {
      "self": "https://issues.redhat.com/rest/api/2/customFieldOption/34174",
      "value": "Pass",
      "id": "34174",
      "disabled": false
    },
    "customfield_12321040": null,
    "subtasks": [],
    "customfield_12323341": null,
    "customfield_12315141": {
      "self": "https://issues.redhat.com/rest/api/2/user?username=rh-ee-desnesn",
      "name": "rh-ee-desnesn",
      "key": "drosario",
      "emailAddress": "desnesn@redhat.com",
      "avatarUrls": {
        "48x48": "https://issues.redhat.com/secure/useravatar?ownerId=drosario&avatarId=41740",
        "24x24": "https://issues.redhat.com/secure/useravatar?size=small&ownerId=drosario&avatarId=41740",
        "16x16": "https://issues.redhat.com/secure/useravatar?size=xsmall&ownerId=drosario&avatarId=41740",
        "32x32": "https://issues.redhat.com/secure/useravatar?size=medium&ownerId=drosario&avatarId=41740"
      },
      "displayName": "Desnes Nunes",
      "active": true,
      "timeZone": "America/Sao_Paulo"
    },
    "reporter": {
      "self": "https://issues.redhat.com/rest/api/2/user?username=mcascell%40redhat.com",
      "name": "mcascell@redhat.com",
      "key": "mcascell",
      "emailAddress": "mcascell@redhat.com",
      "avatarUrls": {
        "48x48": "https://issues.redhat.com/secure/useravatar?avatarId=17284",
        "24x24": "https://issues.redhat.com/secure/useravatar?size=small&avatarId=17284",
        "16x16": "https://issues.redhat.com/secure/useravatar?size=xsmall&avatarId=17284",
        "32x32": "https://issues.redhat.com/secure/useravatar?size=medium&avatarId=17284"
      },
      "displayName": "Mauro Matteo Cascella",
      "active": true,
      "timeZone": "Europe/Rome"
    },
    "priority": {
      "self": "https://issues.redhat.com/rest/api/2/priority/10200",
      "iconUrl": "https://issues.redhat.com/images/icons/priorities/medium.svg",
      "name": "Normal",
      "id": "10200"
    },
    "customfield_12321740": "The following Merge Request has pipeline job artifacts available:\n\nTitle: xhci: Handle TD clearing for multiple streams case [rhel-9.4.z]\nMR: https://gitlab.com/redhat/rhel/src/kernel/rhel-9/-/merge_requests/2252\nMR Pipeline: https://gitlab.com/redhat/rhel/src/kernel/rhel-9/-/pipelines/1422309577\n\nThe Repo URLs are *not* accessible from a web browser! They only function as a dnf or yum baseurl.\n\nArtifacts expire six weeks after creation. If artifacts are needed after that time please rerun the pipeline by visiting the MR's 'Pipelines' tab and clicking the 'Run pipeline' button.\n\n----------------------------------------\n\nDownstream Pipeline Name: RHEL (rhel9_merge_request)\nDataWarehouse Checkout: https://datawarehouse.cki-project.org/kcidb/checkouts/redhat:1422309773\n\n5.14.0-427.33.1.2252_1422309577.el9_4.s390x:\nArtifacts (RPMs): https://artifacts.internal.cki-project.org/arr-cki-prod-internal-artifacts/index.html?prefix=internal-artifacts/1422309773/publish_s390x/7636679962/artifacts/repo/5.14.0-427.33.1.2252_1422309577.el9_4.s390x/\nRepo URL: https://artifacts.internal.cki-project.org/arr-cki-prod-internal-artifacts/internal-artifacts/1422309773/publish_s390x/7636679962/artifacts/repo/5.14.0-427.33.1.2252_1422309577.el9_4.s390x/\n\n5.14.0-427.33.1.2252_1422309577.el9_4.aarch64:\nArtifacts (RPMs): https://artifacts.internal.cki-project.org/arr-cki-prod-internal-artifacts/index.html?prefix=internal-artifacts/1422309773/publish_aarch64/7636679958/artifacts/repo/5.14.0-427.33.1.2252_1422309577.el9_4.aarch64/\nRepo URL: https://artifacts.internal.cki-project.org/arr-cki-prod-internal-artifacts/internal-artifacts/1422309773/publish_aarch64/7636679958/artifacts/repo/5.14.0-427.33.1.2252_1422309577.el9_4.aarch64/\n\n5.14.0-427.33.1.2252_1422309577.el9_4.ppc64le:\nArtifacts (RPMs): https://artifacts.internal.cki-project.org/arr-cki-prod-internal-artifacts/index.html?prefix=internal-artifacts/1422309773/publish_ppc64le/7636679955/artifacts/repo/5.14.0-427.33.1.2252_1422309577.el9_4.ppc64le/\nRepo URL: https://artifacts.internal.cki-project.org/arr-cki-prod-internal-artifacts/internal-artifacts/1422309773/publish_ppc64le/7636679955/artifacts/repo/5.14.0-427.33.1.2252_1422309577.el9_4.ppc64le/\n\n5.14.0-427.33.1.2252_1422309577.el9_4.x86_64-debug:\nArtifacts (RPMs): https://artifacts.internal.cki-project.org/arr-cki-prod-internal-artifacts/index.html?prefix=internal-artifacts/1422309773/publish_x86_64_debug/7636679933/artifacts/repo/5.14.0-427.33.1.2252_1422309577.el9_4.x86_64/\nRepo URL: https://artifacts.internal.cki-project.org/arr-cki-prod-internal-artifacts/internal-artifacts/1422309773/publish_x86_64_debug/7636679933/artifacts/repo/5.14.0-427.33.1.2252_1422309577.el9_4.x86_64/\n\n5.14.0-427.33.1.2252_1422309577.el9_4.x86_64:\nArtifacts (RPMs): https://artifacts.internal.cki-project.org/arr-cki-prod-internal-artifacts/index.html?prefix=internal-artifacts/1422309773/publish_x86_64/7637117484/artifacts/repo/5.14.0-427.33.1.2252_1422309577.el9_4.x86_64/\nRepo URL: https://artifacts.internal.cki-project.org/arr-cki-prod-internal-artifacts/internal-artifacts/1422309773/publish_x86_64/7637117484/artifacts/repo/5.14.0-427.33.1.2252_1422309577.el9_4.x86_64/\n\n----------------------------------------\n\nDownstream Pipeline Name: REALTIME (rhel9_rt_merge_request)\nDataWarehouse Checkout: https://datawarehouse.cki-project.org/kcidb/checkouts/redhat:1422309701\n\n5.14.0-427.33.1.2252_1422309577.el9_4.x86_64-debug:\nArtifacts (RPMs): https://artifacts.internal.cki-project.org/arr-cki-prod-internal-artifacts/index.html?prefix=internal-artifacts/1422309701/publish_x86_64_debug/7636679438/artifacts/repo/5.14.0-427.33.1.2252_1422309577.el9_4.x86_64/\nRepo URL: https://artifacts.internal.cki-project.org/arr-cki-prod-internal-artifacts/internal-artifacts/1422309701/publish_x86_64_debug/7636679438/artifacts/repo/5.14.0-427.33.1.2252_1422309577.el9_4.x86_64/\n\n5.14.0-427.33.1.2252_1422309577.el9_4.x86_64:\nArtifacts (RPMs): https://artifacts.internal.cki-project.org/arr-cki-prod-internal-artifacts/index.html?prefix=internal-artifacts/1422309701/publish_x86_64/7636679420/artifacts/repo/5.14.0-427.33.1.2252_1422309577.el9_4.x86_64/\nRepo URL: https://artifacts.internal.cki-project.org/arr-cki-prod-internal-artifacts/internal-artifacts/1422309701/publish_x86_64/7636679420/artifacts/repo/5.14.0-427.33.1.2252_1422309577.el9_4.x86_64/\n\n----------------------------------------\n\nDownstream Pipeline Name: 64K (rhel9_64k_merge_request)\nDataWarehouse Checkout: https://datawarehouse.cki-project.org/kcidb/checkouts/redhat:1422309802\n\n5.14.0-427.33.1.2252_1422309577.el9_4.aarch64:\nArtifacts (RPMs): https://artifacts.internal.cki-project.org/arr-cki-prod-internal-artifacts/index.html?prefix=internal-artifacts/1422309802/publish_aarch64/7636680003/artifacts/repo/5.14.0-427.33.1.2252_1422309577.el9_4.aarch64/\nRepo URL: https://artifacts.internal.cki-project.org/arr-cki-prod-internal-artifacts/internal-artifacts/1422309802/publish_aarch64/7636680003/artifacts/repo/5.14.0-427.33.1.2252_1422309577.el9_4.aarch64/\n\n----------------------------------------\n\nUpdated 2024-08-21 23:57 UTC by buglinker:\n- KWF FAQ: https://red.ht/kernel_workflow_doc\n- Slack #team-kernel-workflow: https://redhat-internal.slack.com/archives/C04LRUPMJQ5\n- Source: https://gitlab.com/cki-project/kernel-workflow/-/blob/main/webhook/buglinker.py\n- Documentation: https://gitlab.com/cki-project/kernel-workflow/-/blob/main/docs/README.buglinker.md\n- Report an issue: https://gitlab.com/cki-project/kernel-workflow/-/issues/new?issue%5Btitle%5D=buglinker%20webhook%20issue\n",
    "labels": [
      "ApprovedContent",
      "CVE-2024-40927",
      "Security",
      "SecurityTracking",
      "flaw:bz#2297511",
      "kwf-backport-success",
      "pscomponent:kernel"
    ],
    "customfield_12315948": {
      "self": "https://issues.redhat.com/rest/api/2/user?username=ftjahjad",
      "name": "ftjahjad",
      "key": "ftjahjad",
      "emailAddress": "ftjahjad@redhat.com",
      "avatarUrls": {
        "48x48": "https://www.gravatar.com/avatar/cf8ae829708aedf09537c9c6ad683af2?d=mm&s=48",
        "24x24": "https://www.gravatar.com/avatar/cf8ae829708aedf09537c9c6ad683af2?d=mm&s=24",
        "16x16": "https://www.gravatar.com/avatar/cf8ae829708aedf09537c9c6ad683af2?d=mm&s=16",
        "32x32": "https://www.gravatar.com/avatar/cf8ae829708aedf09537c9c6ad683af2?d=mm&s=32"
      },
      "displayName": "Fendy Tjahjadi",
      "active": true,
      "timeZone": "America/New_York"
    },
    "versions": [
      {
        "self": "https://issues.redhat.com/rest/api/2/version/12417802",
        "id": "12417802",
        "description": "PPSync [release:2602]",
        "name": "rhel-9.4.z",
        "archived": false,
        "released": true
      }
    ],
    "issuelinks": [
      {
        "id": "15896339",
        "self": "https://issues.redhat.com/rest/api/2/issueLink/15896339",
        "type": {
          "id": "12311220",
          "name": "Depend",
          "inward": "is depended on by",
          "outward": "depends on",
          "self": "https://issues.redhat.com/rest/api/2/issueLinkType/12311220"
        },
        "inwardIssue": {
          "id": "16141033",
          "key": "RHEL-47895",
          "self": "https://issues.redhat.com/rest/api/2/issue/16141033",
          "fields": {
            "summary": "CVE-2024-40927 kernel-rt: kernel: xhci: Handle TD clearing for multiple streams case [rhel-9.4.z]",
            "status": {
              "self": "https://issues.redhat.com/rest/api/2/status/10018",
              "description": "Work has started",
              "iconUrl": "https://issues.redhat.com/images/icons/status_generic.gif",
              "name": "In Progress",
              "id": "10018",
              "statusCategory": {
                "self": "https://issues.redhat.com/rest/api/2/statuscategory/4",
                "id": 4,
                "key": "indeterminate",
                "colorName": "inprogress",
                "name": "In Progress"
              }
            },
            "priority": {
              "self": "https://issues.redhat.com/rest/api/2/priority/10200",
              "iconUrl": "https://issues.redhat.com/images/icons/priorities/medium.svg",
              "name": "Normal",
              "id": "10200"
            },
            "issuetype": {
              "self": "https://issues.redhat.com/rest/api/2/issuetype/1",
              "id": "1",
              "description": "A problem that impairs or prevents the functions of the product.",
              "iconUrl": "https://issues.redhat.com/secure/viewavatar?size=xsmall&avatarId=13263&avatarType=issuetype",
              "name": "Bug",
              "subtask": false,
              "avatarId": 13263
            }
          }
        }
      }
    ],
    "customfield_12319743": null,
    "assignee": {
      "self": "https://issues.redhat.com/rest/api/2/user?username=scweaver%40redhat.com",
      "name": "scweaver@redhat.com",
      "key": "JIRAUSER172876",
      "emailAddress": "scweaver@redhat.com",
      "avatarUrls": {
        "48x48": "https://issues.redhat.com/secure/useravatar?ownerId=JIRAUSER172876&avatarId=53002",
        "24x24": "https://issues.redhat.com/secure/useravatar?size=small&ownerId=JIRAUSER172876&avatarId=53002",
        "16x16": "https://issues.redhat.com/secure/useravatar?size=xsmall&ownerId=JIRAUSER172876&avatarId=53002",
        "32x32": "https://issues.redhat.com/secure/useravatar?size=medium&ownerId=JIRAUSER172876&avatarId=53002"
      },
      "displayName": "Scott Weaver",
      "active": true,
      "timeZone": "America/New_York"
    },
    "updated": "2024-08-30T13:12:03.000+0000",
    "status": {
      "self": "https://issues.redhat.com/rest/api/2/status/10018",
      "description": "Work has started",
      "iconUrl": "https://issues.redhat.com/images/icons/status_generic.gif",
      "name": "In Progress",
      "id": "10018",
      "statusCategory": {
        "self": "https://issues.redhat.com/rest/api/2/statuscategory/4",
        "id": 4,
        "key": "indeterminate",
        "colorName": "inprogress",
        "name": "In Progress"
      }
    }
  }
}
