{
  "expand": "renderedFields,names,schema,operations,editmeta,changelog,versionedRepresentations",
  "id": "15433469",
  "self": "https://issues.redhat.com/rest/api/2/issue/15433469",
  "key": "RHEL-107",
  "fields": {
    "customfield_12322243": null,
    "customfield_12322244": null,
    "customfield_12318141": {
      "self": "https://issues.redhat.com/rest/api/2/customFieldOption/16978",
      "value": "13",
      "id": "16978",
      "disabled": false
    },
    "customfield_12322640": null,
    "customfield_12322241": null,
    "fixVersions": [],
    "resolution": {
      "self": "https://issues.redhat.com/rest/api/2/resolution/1",
      "id": "1",
      "description": "This issue is closed, and complete.",
      "name": "Done"
    },
    "customfield_12314740": "{}",
    "customfield_12317334": null,
    "customfield_12315950": null,
    "customfield_12310940": null,
    "customfield_12321440": null,
    "lastViewed": "2024-05-09T12:49:58.426+0000",
    "customfield_12321040": null,
    "customfield_12317340": null,
    "customfield_12317341": null,
    "customfield_12323341": [
      {
        "self": "https://issues.redhat.com/rest/api/2/customFieldOption/34166",
        "value": "TestOnly",
        "id": "34166",
        "disabled": false
      }
    ],
    "customfield_12319640": null,
    "customfield_12317342": null,
    "customfield_12313140": null,
    "customfield_12315041": null,
    "priority": {
      "self": "https://issues.redhat.com/rest/api/2/priority/10300",
      "iconUrl": "https://issues.redhat.com/images/icons/priorities/trivial.svg",
      "name": "Undefined",
      "id": "10300"
    },
    "labels": [
      "CVE-1999-2000",
      "Security",
      "SecurityTracking",
      "flaw:bz#91111111",
      "pscomponent:kernel-rt"
    ],
    "customfield_12311641": null,
    "customfield_12311240": null,
    "aggregatetimeoriginalestimate": null,
    "timeestimate": null,
    "versions": [],
    "customfield_12317343": null,
    "issuelinks": [],
    "customfield_12317345": null,
    "assignee": {
      "self": "https://issues.redhat.com/rest/api/2/user?username=prarit%40redhat.com",
      "name": "prarit@redhat.com",
      "key": "prarit",
      "avatarUrls": {
        "48x48": "https://www.gravatar.com/avatar/e37c6ecf3cf59f9f2a333f2ea8ba1297?d=mm&s=48",
        "24x24": "https://www.gravatar.com/avatar/e37c6ecf3cf59f9f2a333f2ea8ba1297?d=mm&s=24",
        "16x16": "https://www.gravatar.com/avatar/e37c6ecf3cf59f9f2a333f2ea8ba1297?d=mm&s=16",
        "32x32": "https://www.gravatar.com/avatar/e37c6ecf3cf59f9f2a333f2ea8ba1297?d=mm&s=32"
      },
      "displayName": "Prarit Bhargava",
      "active": true,
      "timeZone": "America/New_York"
    },
    "customfield_12317347": null,
    "customfield_12317348": null,
    "customfield_12313942": null,
    "customfield_12313941": null,
    "status": {
      "self": "https://issues.redhat.com/rest/api/2/status/1",
      "description": "The issue is new.",
      "iconUrl": "https://issues.redhat.com/images/icons/statuses/new.png",
      "name": "New",
      "id": "1",
      "statusCategory": {
        "self": "https://issues.redhat.com/rest/api/2/statuscategory/3",
        "id": 3,
        "key": "done",
        "colorName": "success",
        "name": "Done"
      }
    },
    "components": [
      {
        "self": "https://issues.redhat.com/rest/api/2/component/12370048",
        "id": "12370048",
        "name": "kernel-rt / Platform Enablement / x86_64",
        "description": "Platform Enablement x86_64 architecture kernel-rt work"
      }
    ],
    "customfield_12320841": null,
    "customfield_12314040": null,
    "customfield_12320844": null,
    "archiveddate": null,
    "customfield_12320842": null,
    "customfield_12310243": 13,
    "aggregatetimeestimate": null,
    "customfield_12317278": null,
    "customfield_12317313": null,
    "customfield_12316348": [
      {
        "self": "https://issues.redhat.com/rest/api/2/customFieldOption/31465",
        "value": "x86_64",
        "id": "31465",
        "disabled": false
      }
    ],
    "customfield_12321540": {
      "self": "https://issues.redhat.com/rest/api/2/customFieldOption/34176",
      "value": "Requested",
      "id": "34176",
      "disabled": false
    },
    "customfield_12323840": null,
    "creator": {
      "self": "https://issues.redhat.com/rest/api/2/user?username=prarit%40redhat.com",
      "name": "prarit@redhat.com",
      "key": "prarit",
      "avatarUrls": {
        "48x48": "https://www.gravatar.com/avatar/e37c6ecf3cf59f9f2a333f2ea8ba1297?d=mm&s=48",
        "24x24": "https://www.gravatar.com/avatar/e37c6ecf3cf59f9f2a333f2ea8ba1297?d=mm&s=24",
        "16x16": "https://www.gravatar.com/avatar/e37c6ecf3cf59f9f2a333f2ea8ba1297?d=mm&s=16",
        "32x32": "https://www.gravatar.com/avatar/e37c6ecf3cf59f9f2a333f2ea8ba1297?d=mm&s=32"
      },
      "displayName": "Prarit Bhargava",
      "active": true,
      "timeZone": "America/New_York"
    },
    "customfield_12321541": null,
    "subtasks": [],
    "customfield_12319740": null,
    "customfield_12321140": null,
    "customfield_12323440": null,
    "customfield_12320851": [
      {
        "self": "https://issues.redhat.com/rest/api/2/customFieldOption/27794",
        "value": "ssg_platform_enablement",
        "id": "27794",
        "disabled": false
      }
    ],
    "customfield_12315141": {
      "self": "https://issues.redhat.com/rest/api/2/user?username=arch-hw-x86-triage",
      "name": "arch-hw-x86-triage",
      "key": "JIRAUSER216911",
      "avatarUrls": {
        "48x48": "https://issues.redhat.com/secure/useravatar?avatarId=17288",
        "24x24": "https://issues.redhat.com/secure/useravatar?size=small&avatarId=17288",
        "16x16": "https://issues.redhat.com/secure/useravatar?size=xsmall&avatarId=17288",
        "32x32": "https://issues.redhat.com/secure/useravatar?size=medium&avatarId=17288"
      },
      "displayName": "Arch HW x86 Triage Bot",
      "active": true,
      "timeZone": "America/New_York"
    },
    "reporter": {
      "self": "https://issues.redhat.com/rest/api/2/user?username=prarit%40redhat.com",
      "name": "prarit@redhat.com",
      "key": "prarit",
      "avatarUrls": {
        "48x48": "https://www.gravatar.com/avatar/e37c6ecf3cf59f9f2a333f2ea8ba1297?d=mm&s=48",
        "24x24": "https://www.gravatar.com/avatar/e37c6ecf3cf59f9f2a333f2ea8ba1297?d=mm&s=24",
        "16x16": "https://www.gravatar.com/avatar/e37c6ecf3cf59f9f2a333f2ea8ba1297?d=mm&s=16",
        "32x32": "https://www.gravatar.com/avatar/e37c6ecf3cf59f9f2a333f2ea8ba1297?d=mm&s=32"
      },
      "displayName": "Prarit Bhargava",
      "active": true,
      "timeZone": "America/New_York"
    },
    "customfield_12320850": null,
    "aggregateprogress": {
      "progress": 0,
      "total": 0
    },
    "customfield_12315542": [
      {
        "self": "https://issues.redhat.com/rest/api/2/customFieldOption/13757",
        "value": "Impediment",
        "id": "13757",
        "disabled": false
      }
    ],
    "customfield_12315948": {
      "self": "https://issues.redhat.com/rest/api/2/user?username=rhn-support-wgomerin",
      "name": "rhn-support-wgomerin",
      "key": "wgomerin",
      "avatarUrls": {
        "48x48": "https://issues.redhat.com/secure/useravatar?ownerId=wgomerin&avatarId=41749",
        "24x24": "https://issues.redhat.com/secure/useravatar?size=small&ownerId=wgomerin&avatarId=41749",
        "16x16": "https://issues.redhat.com/secure/useravatar?size=xsmall&ownerId=wgomerin&avatarId=41749",
        "32x32": "https://issues.redhat.com/secure/useravatar?size=medium&ownerId=wgomerin&avatarId=41749"
      },
      "displayName": "William Gomeringer",
      "active": true,
      "timeZone": "UTC"
    },
    "customfield_12313240": null,
    "customfield_12319742": null,
    "progress": {
      "progress": 0,
      "total": 0
    },
    "votes": {
      "self": "https://issues.redhat.com/rest/api/2/issue/RHEL-107/votes",
      "votes": 0,
      "hasVoted": false
    },
    "customfield_12319743": null,
    "worklog": {
      "startAt": 0,
      "maxResults": 20,
      "total": 0,
      "worklogs": []
    },
    "archivedby": null,
    "customfield_12315940": null,
    "customfield_12317843": null,
    "issuetype": {
      "self": "https://issues.redhat.com/rest/api/2/issuetype/1",
      "id": "1",
      "description": "A problem that impairs or prevents the functions of the product.",
      "iconUrl": "https://issues.redhat.com/secure/viewavatar?size=xsmall&avatarId=13263&avatarType=issuetype",
      "name": "Bug",
      "subtask": false,
      "avatarId": 13263
    },
    "customfield_12317370": null,
    "customfield_12317372": null,
    "customfield_12318341": null,
    "customfield_12317374": null,
    "timespent": null,
    "customfield_12320940": null,
    "project": {
      "self": "https://issues.redhat.com/rest/api/2/project/12332745",
      "id": "12332745",
      "key": "RHEL",
      "name": "RHEL",
      "projectTypeKey": "software",
      "avatarUrls": {
        "48x48": "https://issues.redhat.com/secure/projectavatar?pid=12332745&avatarId=17271",
        "24x24": "https://issues.redhat.com/secure/projectavatar?size=small&pid=12332745&avatarId=17271",
        "16x16": "https://issues.redhat.com/secure/projectavatar?size=xsmall&pid=12332745&avatarId=17271",
        "32x32": "https://issues.redhat.com/secure/projectavatar?size=medium&pid=12332745&avatarId=17271"
      },
      "projectCategory": {
        "self": "https://issues.redhat.com/rest/api/2/projectCategory/10630",
        "id": "10630",
        "description": "These are projects which will be migrated to Red hat Jira (issues.redhat.com)",
        "name": "Product Development-RHEL"
      }
    },
    "customfield_12320944": null,
    "aggregatetimespent": null,
    "customfield_12310220": null,
    "customfield_12310183": null,
    "resolutiondate": "2023-10-23T12:36:21.368+0000",
    "customfield_12318740": null,
    "workratio": -1,
    "customfield_12316840": null,
    "customfield_12317379": null,
    "customfield_12316841": null,
    "customfield_12317259": [
      {
        "self": "https://issues.redhat.com/rest/api/2/customFieldOption/15200",
        "value": "sst_arch_hw",
        "id": "15200",
        "disabled": false
      }
    ],
    "customfield_12319040": null,
    "watches": {
      "self": "https://issues.redhat.com/rest/api/2/issue/RHEL-107/watchers",
      "watchCount": 4,
      "isWatching": false
    },
    "customfield_12319286": {
      "self": "https://issues.redhat.com/rest/api/2/customFieldOption/30767",
      "value": "No",
      "id": "30767",
      "disabled": false
    },
    "created": "2023-08-21T19:49:51.958+0000",
    "customfield_12321240": null,
    "customfield_12323940": null,
    "customfield_12320948": null,
    "customfield_12320947": null,
    "customfield_12320946": null,
    "updated": "2024-04-29T15:02:57.737+0000",
    "customfield_12311840": null,
    "customfield_12322143": null,
    "customfield_12322140": null,
    "customfield_12316142": null,
    "customfield_12322141": null,
    "customfield_12322142": null,
    "timeoriginalestimate": null,
    "description": "This is a test report for scripting.\r\n\r\n \r\n\r\nYes, update it.\r\n\r\n \r\n\r\nHello Prarit.",
    "customfield_12322148": "2023-11-27",
    "timetracking": {},
    "attachment": [],
    "customfield_12316542": {
      "self": "https://issues.redhat.com/rest/api/2/customFieldOption/14655",
      "value": "False",
      "id": "14655",
      "disabled": false
    },
    "customfield_12324041": null,
    "customfield_12316543": {
      "self": "https://issues.redhat.com/rest/api/2/customFieldOption/14656",
      "value": "True",
      "id": "14656",
      "disabled": false
    },
    "customfield_12324040": {
      "self": "https://issues.redhat.com/rest/api/2/customFieldOption/36651",
      "value": "No",
      "id": "36651",
      "disabled": false
    },
    "customfield_12310840": "9223372036854775807",
    "customfield_12316544": "Dev nak",
    "summary": "CVE-1999-2000 kernel-rt: this is a fix [rhel-8.7.0]",
    "customfield_12323640": null,
    "customfield_12323642": null,
    "customfield_12317360": null,
    "customfield_12323641": null,
    "customfield_12318450": null,
    "customfield_12323242": null,
    "customfield_12313040": null,
    "customfield_12323649": null,
    "customfield_12321740": null,
    "customfield_12323644": null,
    "customfield_12323643": null,
    "customfield_12323646": null,
    "customfield_12323645": null,
    "environment": null,
    "customfield_12315740": null,
    "customfield_12313441": "",
    "customfield_12313440": "",
    "duedate": null,
    "customfield_12311140": null,
    "customfield_12319940": null,
    "customfield_12317366": [
      {
        "self": "https://issues.redhat.com/rest/api/2/customFieldOption/31166",
        "value": "Dev nak",
        "id": "31166",
        "disabled": false
      }
    ],
    "comment": {
      "comments": [
        {
          "self": "https://issues.redhat.com/rest/api/2/issue/15433469/comment/22836357",
          "id": "22836357",
          "author": {
            "self": "https://issues.redhat.com/rest/api/2/user?username=prarit%40redhat.com",
            "name": "prarit@redhat.com",
            "key": "prarit",
            "avatarUrls": {
              "48x48": "https://www.gravatar.com/avatar/e37c6ecf3cf59f9f2a333f2ea8ba1297?d=mm&s=48",
              "24x24": "https://www.gravatar.com/avatar/e37c6ecf3cf59f9f2a333f2ea8ba1297?d=mm&s=24",
              "16x16": "https://www.gravatar.com/avatar/e37c6ecf3cf59f9f2a333f2ea8ba1297?d=mm&s=16",
              "32x32": "https://www.gravatar.com/avatar/e37c6ecf3cf59f9f2a333f2ea8ba1297?d=mm&s=32"
            },
            "displayName": "Prarit Bhargava",
            "active": true,
            "timeZone": "America/New_York"
          },
          "body": "Are there any worse people than people who own cats?  I don't think so. \r\n\r\n ",
          "updateAuthor": {
            "self": "https://issues.redhat.com/rest/api/2/user?username=prarit%40redhat.com",
            "name": "prarit@redhat.com",
            "key": "prarit",
            "avatarUrls": {
              "48x48": "https://www.gravatar.com/avatar/e37c6ecf3cf59f9f2a333f2ea8ba1297?d=mm&s=48",
              "24x24": "https://www.gravatar.com/avatar/e37c6ecf3cf59f9f2a333f2ea8ba1297?d=mm&s=24",
              "16x16": "https://www.gravatar.com/avatar/e37c6ecf3cf59f9f2a333f2ea8ba1297?d=mm&s=16",
              "32x32": "https://www.gravatar.com/avatar/e37c6ecf3cf59f9f2a333f2ea8ba1297?d=mm&s=32"
            },
            "displayName": "Prarit Bhargava",
            "active": true,
            "timeZone": "America/New_York"
          },
          "created": "2023-08-21T19:50:28.687+0000",
          "updated": "2023-08-21T19:50:28.687+0000"
        },
        {
          "self": "https://issues.redhat.com/rest/api/2/issue/15433469/comment/22837100",
          "id": "22837100",
          "author": {
            "self": "https://issues.redhat.com/rest/api/2/user?username=rhn-support-vruizrui",
            "name": "rhn-support-vruizrui",
            "key": "vruizrui",
            "avatarUrls": {
              "48x48": "https://issues.redhat.com/secure/useravatar?avatarId=17288",
              "24x24": "https://issues.redhat.com/secure/useravatar?size=small&avatarId=17288",
              "16x16": "https://issues.redhat.com/secure/useravatar?size=xsmall&avatarId=17288",
              "32x32": "https://issues.redhat.com/secure/useravatar?size=medium&avatarId=17288"
            },
            "displayName": "Victor Ruiz Ruiz",
            "active": true,
            "timeZone": "UTC"
          },
          "body": "Test plan:\r\n * Install a heart rate sensor to the subject.\r\n * Show a Peanuts strip to the subject. Expected result: heart rate should stay in normal condition.\r\n * Show a Garfield strip to the subject. Expected result: heart rate should be higher than normal.\r\n * Put a relative close to the subject. Expected result: heart rate should stay in normal condition.\r\n * Put a cat owner close to the subject. Expected result: heart rate should be higher than normal.\r\n * Put a dog close to the subject. Expected result: heart rate should stay in normal condition.\r\n * Put a cat close to the subject. Expected result: heart rate should be higher than normal.\r\n * Put a bowl with birdseed close to the subject: if the food is ingested, the subject is probably not entirely human.",
          "updateAuthor": {
            "self": "https://issues.redhat.com/rest/api/2/user?username=rhn-support-vruizrui",
            "name": "rhn-support-vruizrui",
            "key": "vruizrui",
            "avatarUrls": {
              "48x48": "https://issues.redhat.com/secure/useravatar?avatarId=17288",
              "24x24": "https://issues.redhat.com/secure/useravatar?size=small&avatarId=17288",
              "16x16": "https://issues.redhat.com/secure/useravatar?size=xsmall&avatarId=17288",
              "32x32": "https://issues.redhat.com/secure/useravatar?size=medium&avatarId=17288"
            },
            "displayName": "Victor Ruiz Ruiz",
            "active": true,
            "timeZone": "UTC"
          },
          "created": "2023-08-21T23:08:27.620+0000",
          "updated": "2023-08-22T12:12:23.050+0000"
        },
        {
          "self": "https://issues.redhat.com/rest/api/2/issue/15433469/comment/22844319",
          "id": "22844319",
          "author": {
            "self": "https://issues.redhat.com/rest/api/2/user?username=prarit%40redhat.com",
            "name": "prarit@redhat.com",
            "key": "prarit",
            "avatarUrls": {
              "48x48": "https://www.gravatar.com/avatar/e37c6ecf3cf59f9f2a333f2ea8ba1297?d=mm&s=48",
              "24x24": "https://www.gravatar.com/avatar/e37c6ecf3cf59f9f2a333f2ea8ba1297?d=mm&s=24",
              "16x16": "https://www.gravatar.com/avatar/e37c6ecf3cf59f9f2a333f2ea8ba1297?d=mm&s=16",
              "32x32": "https://www.gravatar.com/avatar/e37c6ecf3cf59f9f2a333f2ea8ba1297?d=mm&s=32"
            },
            "displayName": "Prarit Bhargava",
            "active": true,
            "timeZone": "America/New_York"
          },
          "body": "test ticket can be closed, although I still don't like cats.",
          "updateAuthor": {
            "self": "https://issues.redhat.com/rest/api/2/user?username=prarit%40redhat.com",
            "name": "prarit@redhat.com",
            "key": "prarit",
            "avatarUrls": {
              "48x48": "https://www.gravatar.com/avatar/e37c6ecf3cf59f9f2a333f2ea8ba1297?d=mm&s=48",
              "24x24": "https://www.gravatar.com/avatar/e37c6ecf3cf59f9f2a333f2ea8ba1297?d=mm&s=24",
              "16x16": "https://www.gravatar.com/avatar/e37c6ecf3cf59f9f2a333f2ea8ba1297?d=mm&s=16",
              "32x32": "https://www.gravatar.com/avatar/e37c6ecf3cf59f9f2a333f2ea8ba1297?d=mm&s=32"
            },
            "displayName": "Prarit Bhargava",
            "active": true,
            "timeZone": "America/New_York"
          },
          "created": "2023-08-22T18:20:15.788+0000",
          "updated": "2023-08-22T18:20:15.788+0000"
        },
        {
          "self": "https://issues.redhat.com/rest/api/2/issue/15433469/comment/22844366",
          "id": "22844366",
          "author": {
            "self": "https://issues.redhat.com/rest/api/2/user?username=prarit%40redhat.com",
            "name": "prarit@redhat.com",
            "key": "prarit",
            "avatarUrls": {
              "48x48": "https://www.gravatar.com/avatar/e37c6ecf3cf59f9f2a333f2ea8ba1297?d=mm&s=48",
              "24x24": "https://www.gravatar.com/avatar/e37c6ecf3cf59f9f2a333f2ea8ba1297?d=mm&s=24",
              "16x16": "https://www.gravatar.com/avatar/e37c6ecf3cf59f9f2a333f2ea8ba1297?d=mm&s=16",
              "32x32": "https://www.gravatar.com/avatar/e37c6ecf3cf59f9f2a333f2ea8ba1297?d=mm&s=32"
            },
            "displayName": "Prarit Bhargava",
            "active": true,
            "timeZone": "America/New_York"
          },
          "body": "You're absolutely right [~rhn-engineering-ssorce] , this ticket is not 'Done' as there are still cats for me to hate.",
          "updateAuthor": {
            "self": "https://issues.redhat.com/rest/api/2/user?username=prarit%40redhat.com",
            "name": "prarit@redhat.com",
            "key": "prarit",
            "avatarUrls": {
              "48x48": "https://www.gravatar.com/avatar/e37c6ecf3cf59f9f2a333f2ea8ba1297?d=mm&s=48",
              "24x24": "https://www.gravatar.com/avatar/e37c6ecf3cf59f9f2a333f2ea8ba1297?d=mm&s=24",
              "16x16": "https://www.gravatar.com/avatar/e37c6ecf3cf59f9f2a333f2ea8ba1297?d=mm&s=16",
              "32x32": "https://www.gravatar.com/avatar/e37c6ecf3cf59f9f2a333f2ea8ba1297?d=mm&s=32"
            },
            "displayName": "Prarit Bhargava",
            "active": true,
            "timeZone": "America/New_York"
          },
          "created": "2023-08-22T18:48:13.561+0000",
          "updated": "2023-08-22T18:48:13.561+0000"
        },
        {
          "self": "https://issues.redhat.com/rest/api/2/issue/15433469/comment/22851505",
          "id": "22851505",
          "author": {
            "self": "https://issues.redhat.com/rest/api/2/user?username=prarit%40redhat.com",
            "name": "prarit@redhat.com",
            "key": "prarit",
            "avatarUrls": {
              "48x48": "https://www.gravatar.com/avatar/e37c6ecf3cf59f9f2a333f2ea8ba1297?d=mm&s=48",
              "24x24": "https://www.gravatar.com/avatar/e37c6ecf3cf59f9f2a333f2ea8ba1297?d=mm&s=24",
              "16x16": "https://www.gravatar.com/avatar/e37c6ecf3cf59f9f2a333f2ea8ba1297?d=mm&s=16",
              "32x32": "https://www.gravatar.com/avatar/e37c6ecf3cf59f9f2a333f2ea8ba1297?d=mm&s=32"
            },
            "displayName": "Prarit Bhargava",
            "active": true,
            "timeZone": "America/New_York"
          },
          "body": "Staged",
          "updateAuthor": {
            "self": "https://issues.redhat.com/rest/api/2/user?username=prarit%40redhat.com",
            "name": "prarit@redhat.com",
            "key": "prarit",
            "avatarUrls": {
              "48x48": "https://www.gravatar.com/avatar/e37c6ecf3cf59f9f2a333f2ea8ba1297?d=mm&s=48",
              "24x24": "https://www.gravatar.com/avatar/e37c6ecf3cf59f9f2a333f2ea8ba1297?d=mm&s=24",
              "16x16": "https://www.gravatar.com/avatar/e37c6ecf3cf59f9f2a333f2ea8ba1297?d=mm&s=16",
              "32x32": "https://www.gravatar.com/avatar/e37c6ecf3cf59f9f2a333f2ea8ba1297?d=mm&s=32"
            },
            "displayName": "Prarit Bhargava",
            "active": true,
            "timeZone": "America/New_York"
          },
          "created": "2023-08-23T15:34:19.637+0000",
          "updated": "2023-08-23T15:34:19.637+0000"
        },
        {
          "self": "https://issues.redhat.com/rest/api/2/issue/15433469/comment/22851766",
          "id": "22851766",
          "author": {
            "self": "https://issues.redhat.com/rest/api/2/user?username=rhel-process-autobot",
            "name": "rhel-process-autobot",
            "key": "rhel-process-autobot",
            "avatarUrls": {
              "48x48": "https://issues.redhat.com/secure/useravatar?ownerId=rhel-process-autobot&avatarId=27863",
              "24x24": "https://issues.redhat.com/secure/useravatar?size=small&ownerId=rhel-process-autobot&avatarId=27863",
              "16x16": "https://issues.redhat.com/secure/useravatar?size=xsmall&ownerId=rhel-process-autobot&avatarId=27863",
              "32x32": "https://issues.redhat.com/secure/useravatar?size=medium&ownerId=rhel-process-autobot&avatarId=27863"
            },
            "displayName": "RHEL Jira bot",
            "active": true,
            "timeZone": "UTC"
          },
          "body": "IMPORTANT NOTE - This is issue was marked BLOCKED.  DO NOT MERGE CODE CHANGES related to this ticket until the blocking reasons are resolved.",
          "updateAuthor": {
            "self": "https://issues.redhat.com/rest/api/2/user?username=rhel-process-autobot",
            "name": "rhel-process-autobot",
            "key": "rhel-process-autobot",
            "avatarUrls": {
              "48x48": "https://issues.redhat.com/secure/useravatar?ownerId=rhel-process-autobot&avatarId=27863",
              "24x24": "https://issues.redhat.com/secure/useravatar?size=small&ownerId=rhel-process-autobot&avatarId=27863",
              "16x16": "https://issues.redhat.com/secure/useravatar?size=xsmall&ownerId=rhel-process-autobot&avatarId=27863",
              "32x32": "https://issues.redhat.com/secure/useravatar?size=medium&ownerId=rhel-process-autobot&avatarId=27863"
            },
            "displayName": "RHEL Jira bot",
            "active": true,
            "timeZone": "UTC"
          },
          "created": "2023-08-23T15:50:02.289+0000",
          "updated": "2023-08-23T15:50:02.289+0000"
        },
        {
          "self": "https://issues.redhat.com/rest/api/2/issue/15433469/comment/22851770",
          "id": "22851770",
          "author": {
            "self": "https://issues.redhat.com/rest/api/2/user?username=rhel-process-autobot",
            "name": "rhel-process-autobot",
            "key": "rhel-process-autobot",
            "avatarUrls": {
              "48x48": "https://issues.redhat.com/secure/useravatar?ownerId=rhel-process-autobot&avatarId=27863",
              "24x24": "https://issues.redhat.com/secure/useravatar?size=small&ownerId=rhel-process-autobot&avatarId=27863",
              "16x16": "https://issues.redhat.com/secure/useravatar?size=xsmall&ownerId=rhel-process-autobot&avatarId=27863",
              "32x32": "https://issues.redhat.com/secure/useravatar?size=medium&ownerId=rhel-process-autobot&avatarId=27863"
            },
            "displayName": "RHEL Jira bot",
            "active": true,
            "timeZone": "UTC"
          },
          "body": "This issue has been marked unblocked.",
          "updateAuthor": {
            "self": "https://issues.redhat.com/rest/api/2/user?username=rhel-process-autobot",
            "name": "rhel-process-autobot",
            "key": "rhel-process-autobot",
            "avatarUrls": {
              "48x48": "https://issues.redhat.com/secure/useravatar?ownerId=rhel-process-autobot&avatarId=27863",
              "24x24": "https://issues.redhat.com/secure/useravatar?size=small&ownerId=rhel-process-autobot&avatarId=27863",
              "16x16": "https://issues.redhat.com/secure/useravatar?size=xsmall&ownerId=rhel-process-autobot&avatarId=27863",
              "32x32": "https://issues.redhat.com/secure/useravatar?size=medium&ownerId=rhel-process-autobot&avatarId=27863"
            },
            "displayName": "RHEL Jira bot",
            "active": true,
            "timeZone": "UTC"
          },
          "created": "2023-08-23T15:50:41.803+0000",
          "updated": "2023-08-23T15:50:41.803+0000"
        },
        {
          "self": "https://issues.redhat.com/rest/api/2/issue/15433469/comment/22851772",
          "id": "22851772",
          "author": {
            "self": "https://issues.redhat.com/rest/api/2/user?username=rhel-process-autobot",
            "name": "rhel-process-autobot",
            "key": "rhel-process-autobot",
            "avatarUrls": {
              "48x48": "https://issues.redhat.com/secure/useravatar?ownerId=rhel-process-autobot&avatarId=27863",
              "24x24": "https://issues.redhat.com/secure/useravatar?size=small&ownerId=rhel-process-autobot&avatarId=27863",
              "16x16": "https://issues.redhat.com/secure/useravatar?size=xsmall&ownerId=rhel-process-autobot&avatarId=27863",
              "32x32": "https://issues.redhat.com/secure/useravatar?size=medium&ownerId=rhel-process-autobot&avatarId=27863"
            },
            "displayName": "RHEL Jira bot",
            "active": true,
            "timeZone": "UTC"
          },
          "body": "This issue has been marked unblocked.",
          "updateAuthor": {
            "self": "https://issues.redhat.com/rest/api/2/user?username=rhel-process-autobot",
            "name": "rhel-process-autobot",
            "key": "rhel-process-autobot",
            "avatarUrls": {
              "48x48": "https://issues.redhat.com/secure/useravatar?ownerId=rhel-process-autobot&avatarId=27863",
              "24x24": "https://issues.redhat.com/secure/useravatar?size=small&ownerId=rhel-process-autobot&avatarId=27863",
              "16x16": "https://issues.redhat.com/secure/useravatar?size=xsmall&ownerId=rhel-process-autobot&avatarId=27863",
              "32x32": "https://issues.redhat.com/secure/useravatar?size=medium&ownerId=rhel-process-autobot&avatarId=27863"
            },
            "displayName": "RHEL Jira bot",
            "active": true,
            "timeZone": "UTC"
          },
          "created": "2023-08-23T15:50:51.508+0000",
          "updated": "2023-08-23T15:50:51.508+0000"
        },
        {
          "self": "https://issues.redhat.com/rest/api/2/issue/15433469/comment/22851785",
          "id": "22851785",
          "author": {
            "self": "https://issues.redhat.com/rest/api/2/user?username=rhel-process-autobot",
            "name": "rhel-process-autobot",
            "key": "rhel-process-autobot",
            "avatarUrls": {
              "48x48": "https://issues.redhat.com/secure/useravatar?ownerId=rhel-process-autobot&avatarId=27863",
              "24x24": "https://issues.redhat.com/secure/useravatar?size=small&ownerId=rhel-process-autobot&avatarId=27863",
              "16x16": "https://issues.redhat.com/secure/useravatar?size=xsmall&ownerId=rhel-process-autobot&avatarId=27863",
              "32x32": "https://issues.redhat.com/secure/useravatar?size=medium&ownerId=rhel-process-autobot&avatarId=27863"
            },
            "displayName": "RHEL Jira bot",
            "active": true,
            "timeZone": "UTC"
          },
          "body": "IMPORTANT NOTE - This is issue was marked BLOCKED.  DO NOT MERGE CODE CHANGES related to this ticket until the blocking reasons are resolved.",
          "updateAuthor": {
            "self": "https://issues.redhat.com/rest/api/2/user?username=rhel-process-autobot",
            "name": "rhel-process-autobot",
            "key": "rhel-process-autobot",
            "avatarUrls": {
              "48x48": "https://issues.redhat.com/secure/useravatar?ownerId=rhel-process-autobot&avatarId=27863",
              "24x24": "https://issues.redhat.com/secure/useravatar?size=small&ownerId=rhel-process-autobot&avatarId=27863",
              "16x16": "https://issues.redhat.com/secure/useravatar?size=xsmall&ownerId=rhel-process-autobot&avatarId=27863",
              "32x32": "https://issues.redhat.com/secure/useravatar?size=medium&ownerId=rhel-process-autobot&avatarId=27863"
            },
            "displayName": "RHEL Jira bot",
            "active": true,
            "timeZone": "UTC"
          },
          "created": "2023-08-23T15:55:27.577+0000",
          "updated": "2023-08-23T15:55:27.577+0000"
        },
        {
          "self": "https://issues.redhat.com/rest/api/2/issue/15433469/comment/23286534",
          "id": "23286534",
          "author": {
            "self": "https://issues.redhat.com/rest/api/2/user?username=rhel-process-autobot",
            "name": "rhel-process-autobot",
            "key": "rhel-process-autobot",
            "avatarUrls": {
              "48x48": "https://issues.redhat.com/secure/useravatar?ownerId=rhel-process-autobot&avatarId=27863",
              "24x24": "https://issues.redhat.com/secure/useravatar?size=small&ownerId=rhel-process-autobot&avatarId=27863",
              "16x16": "https://issues.redhat.com/secure/useravatar?size=xsmall&ownerId=rhel-process-autobot&avatarId=27863",
              "32x32": "https://issues.redhat.com/secure/useravatar?size=medium&ownerId=rhel-process-autobot&avatarId=27863"
            },
            "displayName": "RHEL Jira bot",
            "active": true,
            "timeZone": "UTC"
          },
          "body": "This issue has been marked unblocked.",
          "updateAuthor": {
            "self": "https://issues.redhat.com/rest/api/2/user?username=rhel-process-autobot",
            "name": "rhel-process-autobot",
            "key": "rhel-process-autobot",
            "avatarUrls": {
              "48x48": "https://issues.redhat.com/secure/useravatar?ownerId=rhel-process-autobot&avatarId=27863",
              "24x24": "https://issues.redhat.com/secure/useravatar?size=small&ownerId=rhel-process-autobot&avatarId=27863",
              "16x16": "https://issues.redhat.com/secure/useravatar?size=xsmall&ownerId=rhel-process-autobot&avatarId=27863",
              "32x32": "https://issues.redhat.com/secure/useravatar?size=medium&ownerId=rhel-process-autobot&avatarId=27863"
            },
            "displayName": "RHEL Jira bot",
            "active": true,
            "timeZone": "UTC"
          },
          "created": "2023-10-16T19:49:51.743+0000",
          "updated": "2023-10-16T19:49:51.743+0000"
        },
        {
          "self": "https://issues.redhat.com/rest/api/2/issue/15433469/comment/23286540",
          "id": "23286540",
          "author": {
            "self": "https://issues.redhat.com/rest/api/2/user?username=rhel-process-autobot",
            "name": "rhel-process-autobot",
            "key": "rhel-process-autobot",
            "avatarUrls": {
              "48x48": "https://issues.redhat.com/secure/useravatar?ownerId=rhel-process-autobot&avatarId=27863",
              "24x24": "https://issues.redhat.com/secure/useravatar?size=small&ownerId=rhel-process-autobot&avatarId=27863",
              "16x16": "https://issues.redhat.com/secure/useravatar?size=xsmall&ownerId=rhel-process-autobot&avatarId=27863",
              "32x32": "https://issues.redhat.com/secure/useravatar?size=medium&ownerId=rhel-process-autobot&avatarId=27863"
            },
            "displayName": "RHEL Jira bot",
            "active": true,
            "timeZone": "UTC"
          },
          "body": "IMPORTANT NOTE - This is issue was marked BLOCKED.  DO NOT MERGE CODE CHANGES related to this ticket until the blocking reasons are resolved.",
          "updateAuthor": {
            "self": "https://issues.redhat.com/rest/api/2/user?username=rhel-process-autobot",
            "name": "rhel-process-autobot",
            "key": "rhel-process-autobot",
            "avatarUrls": {
              "48x48": "https://issues.redhat.com/secure/useravatar?ownerId=rhel-process-autobot&avatarId=27863",
              "24x24": "https://issues.redhat.com/secure/useravatar?size=small&ownerId=rhel-process-autobot&avatarId=27863",
              "16x16": "https://issues.redhat.com/secure/useravatar?size=xsmall&ownerId=rhel-process-autobot&avatarId=27863",
              "32x32": "https://issues.redhat.com/secure/useravatar?size=medium&ownerId=rhel-process-autobot&avatarId=27863"
            },
            "displayName": "RHEL Jira bot",
            "active": true,
            "timeZone": "UTC"
          },
          "created": "2023-10-16T19:52:47.945+0000",
          "updated": "2023-10-16T19:52:47.945+0000"
        },
        {
          "self": "https://issues.redhat.com/rest/api/2/issue/15433469/comment/23290696",
          "id": "23290696",
          "author": {
            "self": "https://issues.redhat.com/rest/api/2/user?username=rhel-process-autobot",
            "name": "rhel-process-autobot",
            "key": "rhel-process-autobot",
            "avatarUrls": {
              "48x48": "https://issues.redhat.com/secure/useravatar?ownerId=rhel-process-autobot&avatarId=27863",
              "24x24": "https://issues.redhat.com/secure/useravatar?size=small&ownerId=rhel-process-autobot&avatarId=27863",
              "16x16": "https://issues.redhat.com/secure/useravatar?size=xsmall&ownerId=rhel-process-autobot&avatarId=27863",
              "32x32": "https://issues.redhat.com/secure/useravatar?size=medium&ownerId=rhel-process-autobot&avatarId=27863"
            },
            "displayName": "RHEL Jira bot",
            "active": true,
            "timeZone": "UTC"
          },
          "body": "This issue has been marked unblocked.",
          "updateAuthor": {
            "self": "https://issues.redhat.com/rest/api/2/user?username=rhel-process-autobot",
            "name": "rhel-process-autobot",
            "key": "rhel-process-autobot",
            "avatarUrls": {
              "48x48": "https://issues.redhat.com/secure/useravatar?ownerId=rhel-process-autobot&avatarId=27863",
              "24x24": "https://issues.redhat.com/secure/useravatar?size=small&ownerId=rhel-process-autobot&avatarId=27863",
              "16x16": "https://issues.redhat.com/secure/useravatar?size=xsmall&ownerId=rhel-process-autobot&avatarId=27863",
              "32x32": "https://issues.redhat.com/secure/useravatar?size=medium&ownerId=rhel-process-autobot&avatarId=27863"
            },
            "displayName": "RHEL Jira bot",
            "active": true,
            "timeZone": "UTC"
          },
          "created": "2023-10-17T11:52:31.269+0000",
          "updated": "2023-10-17T11:52:31.269+0000"
        },
        {
          "self": "https://issues.redhat.com/rest/api/2/issue/15433469/comment/23290698",
          "id": "23290698",
          "author": {
            "self": "https://issues.redhat.com/rest/api/2/user?username=rhel-process-autobot",
            "name": "rhel-process-autobot",
            "key": "rhel-process-autobot",
            "avatarUrls": {
              "48x48": "https://issues.redhat.com/secure/useravatar?ownerId=rhel-process-autobot&avatarId=27863",
              "24x24": "https://issues.redhat.com/secure/useravatar?size=small&ownerId=rhel-process-autobot&avatarId=27863",
              "16x16": "https://issues.redhat.com/secure/useravatar?size=xsmall&ownerId=rhel-process-autobot&avatarId=27863",
              "32x32": "https://issues.redhat.com/secure/useravatar?size=medium&ownerId=rhel-process-autobot&avatarId=27863"
            },
            "displayName": "RHEL Jira bot",
            "active": true,
            "timeZone": "UTC"
          },
          "body": "IMPORTANT NOTE - This is issue was marked BLOCKED.  DO NOT MERGE CODE CHANGES related to this ticket until the blocking reasons are resolved.",
          "updateAuthor": {
            "self": "https://issues.redhat.com/rest/api/2/user?username=rhel-process-autobot",
            "name": "rhel-process-autobot",
            "key": "rhel-process-autobot",
            "avatarUrls": {
              "48x48": "https://issues.redhat.com/secure/useravatar?ownerId=rhel-process-autobot&avatarId=27863",
              "24x24": "https://issues.redhat.com/secure/useravatar?size=small&ownerId=rhel-process-autobot&avatarId=27863",
              "16x16": "https://issues.redhat.com/secure/useravatar?size=xsmall&ownerId=rhel-process-autobot&avatarId=27863",
              "32x32": "https://issues.redhat.com/secure/useravatar?size=medium&ownerId=rhel-process-autobot&avatarId=27863"
            },
            "displayName": "RHEL Jira bot",
            "active": true,
            "timeZone": "UTC"
          },
          "created": "2023-10-17T11:54:11.133+0000",
          "updated": "2023-10-17T11:54:11.133+0000"
        },
        {
          "self": "https://issues.redhat.com/rest/api/2/issue/15433469/comment/23291739",
          "id": "23291739",
          "author": {
            "self": "https://issues.redhat.com/rest/api/2/user?username=rhel-process-autobot",
            "name": "rhel-process-autobot",
            "key": "rhel-process-autobot",
            "avatarUrls": {
              "48x48": "https://issues.redhat.com/secure/useravatar?ownerId=rhel-process-autobot&avatarId=27863",
              "24x24": "https://issues.redhat.com/secure/useravatar?size=small&ownerId=rhel-process-autobot&avatarId=27863",
              "16x16": "https://issues.redhat.com/secure/useravatar?size=xsmall&ownerId=rhel-process-autobot&avatarId=27863",
              "32x32": "https://issues.redhat.com/secure/useravatar?size=medium&ownerId=rhel-process-autobot&avatarId=27863"
            },
            "displayName": "RHEL Jira bot",
            "active": true,
            "timeZone": "UTC"
          },
          "body": "This issue has been marked unblocked.",
          "updateAuthor": {
            "self": "https://issues.redhat.com/rest/api/2/user?username=rhel-process-autobot",
            "name": "rhel-process-autobot",
            "key": "rhel-process-autobot",
            "avatarUrls": {
              "48x48": "https://issues.redhat.com/secure/useravatar?ownerId=rhel-process-autobot&avatarId=27863",
              "24x24": "https://issues.redhat.com/secure/useravatar?size=small&ownerId=rhel-process-autobot&avatarId=27863",
              "16x16": "https://issues.redhat.com/secure/useravatar?size=xsmall&ownerId=rhel-process-autobot&avatarId=27863",
              "32x32": "https://issues.redhat.com/secure/useravatar?size=medium&ownerId=rhel-process-autobot&avatarId=27863"
            },
            "displayName": "RHEL Jira bot",
            "active": true,
            "timeZone": "UTC"
          },
          "created": "2023-10-17T13:11:16.122+0000",
          "updated": "2023-10-17T13:11:16.122+0000"
        },
        {
          "self": "https://issues.redhat.com/rest/api/2/issue/15433469/comment/23310813",
          "id": "23310813",
          "author": {
            "self": "https://issues.redhat.com/rest/api/2/user?username=rhel-process-autobot",
            "name": "rhel-process-autobot",
            "key": "rhel-process-autobot",
            "avatarUrls": {
              "48x48": "https://issues.redhat.com/secure/useravatar?ownerId=rhel-process-autobot&avatarId=27863",
              "24x24": "https://issues.redhat.com/secure/useravatar?size=small&ownerId=rhel-process-autobot&avatarId=27863",
              "16x16": "https://issues.redhat.com/secure/useravatar?size=xsmall&ownerId=rhel-process-autobot&avatarId=27863",
              "32x32": "https://issues.redhat.com/secure/useravatar?size=medium&ownerId=rhel-process-autobot&avatarId=27863"
            },
            "displayName": "RHEL Jira bot",
            "active": true,
            "timeZone": "UTC"
          },
          "body": "IMPORTANT NOTE - This is issue was marked BLOCKED.  DO NOT MERGE CODE CHANGES related to this ticket until the blocking reasons are resolved.",
          "updateAuthor": {
            "self": "https://issues.redhat.com/rest/api/2/user?username=rhel-process-autobot",
            "name": "rhel-process-autobot",
            "key": "rhel-process-autobot",
            "avatarUrls": {
              "48x48": "https://issues.redhat.com/secure/useravatar?ownerId=rhel-process-autobot&avatarId=27863",
              "24x24": "https://issues.redhat.com/secure/useravatar?size=small&ownerId=rhel-process-autobot&avatarId=27863",
              "16x16": "https://issues.redhat.com/secure/useravatar?size=xsmall&ownerId=rhel-process-autobot&avatarId=27863",
              "32x32": "https://issues.redhat.com/secure/useravatar?size=medium&ownerId=rhel-process-autobot&avatarId=27863"
            },
            "displayName": "RHEL Jira bot",
            "active": true,
            "timeZone": "UTC"
          },
          "created": "2023-10-19T13:07:28.853+0000",
          "updated": "2023-10-19T13:07:28.853+0000"
        },
        {
          "self": "https://issues.redhat.com/rest/api/2/issue/15433469/comment/23310814",
          "id": "23310814",
          "author": {
            "self": "https://issues.redhat.com/rest/api/2/user?username=rhel-process-autobot",
            "name": "rhel-process-autobot",
            "key": "rhel-process-autobot",
            "avatarUrls": {
              "48x48": "https://issues.redhat.com/secure/useravatar?ownerId=rhel-process-autobot&avatarId=27863",
              "24x24": "https://issues.redhat.com/secure/useravatar?size=small&ownerId=rhel-process-autobot&avatarId=27863",
              "16x16": "https://issues.redhat.com/secure/useravatar?size=xsmall&ownerId=rhel-process-autobot&avatarId=27863",
              "32x32": "https://issues.redhat.com/secure/useravatar?size=medium&ownerId=rhel-process-autobot&avatarId=27863"
            },
            "displayName": "RHEL Jira bot",
            "active": true,
            "timeZone": "UTC"
          },
          "body": "This issue has been marked unblocked.",
          "updateAuthor": {
            "self": "https://issues.redhat.com/rest/api/2/user?username=rhel-process-autobot",
            "name": "rhel-process-autobot",
            "key": "rhel-process-autobot",
            "avatarUrls": {
              "48x48": "https://issues.redhat.com/secure/useravatar?ownerId=rhel-process-autobot&avatarId=27863",
              "24x24": "https://issues.redhat.com/secure/useravatar?size=small&ownerId=rhel-process-autobot&avatarId=27863",
              "16x16": "https://issues.redhat.com/secure/useravatar?size=xsmall&ownerId=rhel-process-autobot&avatarId=27863",
              "32x32": "https://issues.redhat.com/secure/useravatar?size=medium&ownerId=rhel-process-autobot&avatarId=27863"
            },
            "displayName": "RHEL Jira bot",
            "active": true,
            "timeZone": "UTC"
          },
          "created": "2023-10-19T13:08:07.364+0000",
          "updated": "2023-10-19T13:08:07.364+0000"
        },
        {
          "self": "https://issues.redhat.com/rest/api/2/issue/15433469/comment/23310992",
          "id": "23310992",
          "author": {
            "self": "https://issues.redhat.com/rest/api/2/user?username=rhel-process-autobot",
            "name": "rhel-process-autobot",
            "key": "rhel-process-autobot",
            "avatarUrls": {
              "48x48": "https://issues.redhat.com/secure/useravatar?ownerId=rhel-process-autobot&avatarId=27863",
              "24x24": "https://issues.redhat.com/secure/useravatar?size=small&ownerId=rhel-process-autobot&avatarId=27863",
              "16x16": "https://issues.redhat.com/secure/useravatar?size=xsmall&ownerId=rhel-process-autobot&avatarId=27863",
              "32x32": "https://issues.redhat.com/secure/useravatar?size=medium&ownerId=rhel-process-autobot&avatarId=27863"
            },
            "displayName": "RHEL Jira bot",
            "active": true,
            "timeZone": "UTC"
          },
          "body": "IMPORTANT NOTE - This is issue was marked BLOCKED.  DO NOT MERGE CODE CHANGES related to this ticket until the blocking reasons are resolved.",
          "updateAuthor": {
            "self": "https://issues.redhat.com/rest/api/2/user?username=rhel-process-autobot",
            "name": "rhel-process-autobot",
            "key": "rhel-process-autobot",
            "avatarUrls": {
              "48x48": "https://issues.redhat.com/secure/useravatar?ownerId=rhel-process-autobot&avatarId=27863",
              "24x24": "https://issues.redhat.com/secure/useravatar?size=small&ownerId=rhel-process-autobot&avatarId=27863",
              "16x16": "https://issues.redhat.com/secure/useravatar?size=xsmall&ownerId=rhel-process-autobot&avatarId=27863",
              "32x32": "https://issues.redhat.com/secure/useravatar?size=medium&ownerId=rhel-process-autobot&avatarId=27863"
            },
            "displayName": "RHEL Jira bot",
            "active": true,
            "timeZone": "UTC"
          },
          "created": "2023-10-19T13:25:18.071+0000",
          "updated": "2023-10-19T13:25:18.071+0000"
        }
      ],
      "maxResults": 17,
      "total": 17,
      "startAt": 0
    },
    "customfield_12310213": null,
    "customfield_12311940": "2|hy2tav:"
  }
}
